(['F:\\tools\\Facebook '
  'marketplace\\auto-fb-mp-master\\Auto_FBMP_Crapelinkproduk.py'],
 ['F:\\tools\\Facebook marketplace\\auto-fb-mp-master',
  'F:\\tools\\Facebook marketplace\\auto-fb-mp-master'],
 ['codecs'],
 ['c:\\python\\lib\\site-packages\\_pyinstaller_hooks_contrib\\hooks\\stdhooks',
  'c:\\python\\lib\\site-packages\\_pyinstaller_hooks_contrib\\hooks\\stdhooks\\__pycache__',
  'c:\\python\\lib\\site-packages\\_pyinstaller_hooks_contrib\\hooks\\rthooks',
  'c:\\python\\lib\\site-packages\\_pyinstaller_hooks_contrib\\hooks\\rthooks\\__pycache__',
  'c:\\python\\lib\\site-packages\\_pyinstaller_hooks_contrib\\hooks'],
 [],
 [],
 False,
 False,
 False,
 '3.8.5 (tags/v3.8.5:580fbb0, Jul 20 2020, 15:43:08) [MSC v.1926 32 bit '
 '(Intel)]',
 [('pyi_rth_multiprocessing',
   'C:\\Python\\Lib\\site-packages\\PyInstaller\\hooks\\rthooks\\pyi_rth_multiprocessing.py',
   'PYSOURCE'),
  ('pyi_rth_certifi',
   'C:\\Python\\Lib\\site-packages\\_pyinstaller_hooks_contrib\\hooks\\rthooks\\pyi_rth_certifi.py',
   'PYSOURCE'),
  ('Auto_FBMP_Crapelinkproduk',
   'F:\\tools\\Facebook '
   'marketplace\\auto-fb-mp-master\\Auto_FBMP_Crapelinkproduk.py',
   'PYSOURCE')],
 [('ssl', 'c:\\python\\lib\\ssl.py', 'PYMODULE'),
  ('calendar', 'c:\\python\\lib\\calendar.py', 'PYMODULE'),
  ('argparse', 'c:\\python\\lib\\argparse.py', 'PYMODULE'),
  ('textwrap', 'c:\\python\\lib\\textwrap.py', 'PYMODULE'),
  ('copy', 'c:\\python\\lib\\copy.py', 'PYMODULE'),
  ('gettext', 'c:\\python\\lib\\gettext.py', 'PYMODULE'),
  ('struct', 'c:\\python\\lib\\struct.py', 'PYMODULE'),
  ('shutil', 'c:\\python\\lib\\shutil.py', 'PYMODULE'),
  ('zipfile', 'c:\\python\\lib\\zipfile.py', 'PYMODULE'),
  ('py_compile', 'c:\\python\\lib\\py_compile.py', 'PYMODULE'),
  ('ntpath', 'c:\\python\\lib\\ntpath.py', 'PYMODULE'),
  ('string', 'c:\\python\\lib\\string.py', 'PYMODULE'),
  ('genericpath', 'c:\\python\\lib\\genericpath.py', 'PYMODULE'),
  ('importlib.machinery',
   'c:\\python\\lib\\importlib\\machinery.py',
   'PYMODULE'),
  ('importlib', 'c:\\python\\lib\\importlib\\__init__.py', 'PYMODULE'),
  ('importlib._bootstrap',
   'c:\\python\\lib\\importlib\\_bootstrap.py',
   'PYMODULE'),
  ('importlib._bootstrap_external',
   'c:\\python\\lib\\importlib\\_bootstrap_external.py',
   'PYMODULE'),
  ('importlib.metadata', 'c:\\python\\lib\\importlib\\metadata.py', 'PYMODULE'),
  ('importlib.abc', 'c:\\python\\lib\\importlib\\abc.py', 'PYMODULE'),
  ('configparser', 'c:\\python\\lib\\configparser.py', 'PYMODULE'),
  ('pathlib', 'c:\\python\\lib\\pathlib.py', 'PYMODULE'),
  ('email', 'c:\\python\\lib\\email\\__init__.py', 'PYMODULE'),
  ('email.parser', 'c:\\python\\lib\\email\\parser.py', 'PYMODULE'),
  ('email._policybase', 'c:\\python\\lib\\email\\_policybase.py', 'PYMODULE'),
  ('email.utils', 'c:\\python\\lib\\email\\utils.py', 'PYMODULE'),
  ('email._parseaddr', 'c:\\python\\lib\\email\\_parseaddr.py', 'PYMODULE'),
  ('random', 'c:\\python\\lib\\random.py', 'PYMODULE'),
  ('hashlib', 'c:\\python\\lib\\hashlib.py', 'PYMODULE'),
  ('bisect', 'c:\\python\\lib\\bisect.py', 'PYMODULE'),
  ('email.feedparser', 'c:\\python\\lib\\email\\feedparser.py', 'PYMODULE'),
  ('email.message', 'c:\\python\\lib\\email\\message.py', 'PYMODULE'),
  ('email.policy', 'c:\\python\\lib\\email\\policy.py', 'PYMODULE'),
  ('email.contentmanager',
   'c:\\python\\lib\\email\\contentmanager.py',
   'PYMODULE'),
  ('email.quoprimime', 'c:\\python\\lib\\email\\quoprimime.py', 'PYMODULE'),
  ('email.headerregistry',
   'c:\\python\\lib\\email\\headerregistry.py',
   'PYMODULE'),
  ('email.iterators', 'c:\\python\\lib\\email\\iterators.py', 'PYMODULE'),
  ('email.generator', 'c:\\python\\lib\\email\\generator.py', 'PYMODULE'),
  ('email._encoded_words',
   'c:\\python\\lib\\email\\_encoded_words.py',
   'PYMODULE'),
  ('quopri', 'c:\\python\\lib\\quopri.py', 'PYMODULE'),
  ('getopt', 'c:\\python\\lib\\getopt.py', 'PYMODULE'),
  ('uu', 'c:\\python\\lib\\uu.py', 'PYMODULE'),
  ('optparse', 'c:\\python\\lib\\optparse.py', 'PYMODULE'),
  ('email._header_value_parser',
   'c:\\python\\lib\\email\\_header_value_parser.py',
   'PYMODULE'),
  ('urllib', 'c:\\python\\lib\\urllib\\__init__.py', 'PYMODULE'),
  ('email.header', 'c:\\python\\lib\\email\\header.py', 'PYMODULE'),
  ('email.base64mime', 'c:\\python\\lib\\email\\base64mime.py', 'PYMODULE'),
  ('email.charset', 'c:\\python\\lib\\email\\charset.py', 'PYMODULE'),
  ('email.encoders', 'c:\\python\\lib\\email\\encoders.py', 'PYMODULE'),
  ('email.errors', 'c:\\python\\lib\\email\\errors.py', 'PYMODULE'),
  ('csv', 'c:\\python\\lib\\csv.py', 'PYMODULE'),
  ('tokenize', 'c:\\python\\lib\\tokenize.py', 'PYMODULE'),
  ('token', 'c:\\python\\lib\\token.py', 'PYMODULE'),
  ('contextlib', 'c:\\python\\lib\\contextlib.py', 'PYMODULE'),
  ('threading', 'c:\\python\\lib\\threading.py', 'PYMODULE'),
  ('_threading_local', 'c:\\python\\lib\\_threading_local.py', 'PYMODULE'),
  ('posixpath', 'c:\\python\\lib\\posixpath.py', 'PYMODULE'),
  ('importlib.util', 'c:\\python\\lib\\importlib\\util.py', 'PYMODULE'),
  ('tarfile', 'c:\\python\\lib\\tarfile.py', 'PYMODULE'),
  ('gzip', 'c:\\python\\lib\\gzip.py', 'PYMODULE'),
  ('_compression', 'c:\\python\\lib\\_compression.py', 'PYMODULE'),
  ('lzma', 'c:\\python\\lib\\lzma.py', 'PYMODULE'),
  ('bz2', 'c:\\python\\lib\\bz2.py', 'PYMODULE'),
  ('fnmatch', 'c:\\python\\lib\\fnmatch.py', 'PYMODULE'),
  ('stat', 'c:\\python\\lib\\stat.py', 'PYMODULE'),
  ('base64', 'c:\\python\\lib\\base64.py', 'PYMODULE'),
  ('socket', 'c:\\python\\lib\\socket.py', 'PYMODULE'),
  ('selectors', 'c:\\python\\lib\\selectors.py', 'PYMODULE'),
  ('multiprocessing.popen_spawn_posix',
   'c:\\python\\lib\\multiprocessing\\popen_spawn_posix.py',
   'PYMODULE'),
  ('multiprocessing.resource_tracker',
   'c:\\python\\lib\\multiprocessing\\resource_tracker.py',
   'PYMODULE'),
  ('signal', 'c:\\python\\lib\\signal.py', 'PYMODULE'),
  ('multiprocessing.util',
   'c:\\python\\lib\\multiprocessing\\util.py',
   'PYMODULE'),
  ('multiprocessing.forkserver',
   'c:\\python\\lib\\multiprocessing\\forkserver.py',
   'PYMODULE'),
  ('multiprocessing.connection',
   'c:\\python\\lib\\multiprocessing\\connection.py',
   'PYMODULE'),
  ('multiprocessing.resource_sharer',
   'c:\\python\\lib\\multiprocessing\\resource_sharer.py',
   'PYMODULE'),
  ('xmlrpc.client', 'c:\\python\\lib\\xmlrpc\\client.py', 'PYMODULE'),
  ('xmlrpc', 'c:\\python\\lib\\xmlrpc\\__init__.py', 'PYMODULE'),
  ('xml.parsers.expat', 'c:\\python\\lib\\xml\\parsers\\expat.py', 'PYMODULE'),
  ('xml.parsers', 'c:\\python\\lib\\xml\\parsers\\__init__.py', 'PYMODULE'),
  ('xml', 'c:\\python\\lib\\xml\\__init__.py', 'PYMODULE'),
  ('xml.sax.expatreader',
   'c:\\python\\lib\\xml\\sax\\expatreader.py',
   'PYMODULE'),
  ('xml.sax.saxutils', 'c:\\python\\lib\\xml\\sax\\saxutils.py', 'PYMODULE'),
  ('urllib.request', 'c:\\python\\lib\\urllib\\request.py', 'PYMODULE'),
  ('getpass', 'c:\\python\\lib\\getpass.py', 'PYMODULE'),
  ('nturl2path', 'c:\\python\\lib\\nturl2path.py', 'PYMODULE'),
  ('ftplib', 'c:\\python\\lib\\ftplib.py', 'PYMODULE'),
  ('netrc', 'c:\\python\\lib\\netrc.py', 'PYMODULE'),
  ('shlex', 'c:\\python\\lib\\shlex.py', 'PYMODULE'),
  ('mimetypes', 'c:\\python\\lib\\mimetypes.py', 'PYMODULE'),
  ('http.cookiejar', 'c:\\python\\lib\\http\\cookiejar.py', 'PYMODULE'),
  ('http', 'c:\\python\\lib\\http\\__init__.py', 'PYMODULE'),
  ('urllib.response', 'c:\\python\\lib\\urllib\\response.py', 'PYMODULE'),
  ('urllib.error', 'c:\\python\\lib\\urllib\\error.py', 'PYMODULE'),
  ('xml.sax', 'c:\\python\\lib\\xml\\sax\\__init__.py', 'PYMODULE'),
  ('xml.sax.handler', 'c:\\python\\lib\\xml\\sax\\handler.py', 'PYMODULE'),
  ('xml.sax._exceptions',
   'c:\\python\\lib\\xml\\sax\\_exceptions.py',
   'PYMODULE'),
  ('xml.sax.xmlreader', 'c:\\python\\lib\\xml\\sax\\xmlreader.py', 'PYMODULE'),
  ('http.client', 'c:\\python\\lib\\http\\client.py', 'PYMODULE'),
  ('decimal', 'c:\\python\\lib\\decimal.py', 'PYMODULE'),
  ('_pydecimal', 'c:\\python\\lib\\_pydecimal.py', 'PYMODULE'),
  ('contextvars', 'c:\\python\\lib\\contextvars.py', 'PYMODULE'),
  ('numbers', 'c:\\python\\lib\\numbers.py', 'PYMODULE'),
  ('hmac', 'c:\\python\\lib\\hmac.py', 'PYMODULE'),
  ('tempfile', 'c:\\python\\lib\\tempfile.py', 'PYMODULE'),
  ('multiprocessing.process',
   'c:\\python\\lib\\multiprocessing\\process.py',
   'PYMODULE'),
  ('multiprocessing.context',
   'c:\\python\\lib\\multiprocessing\\context.py',
   'PYMODULE'),
  ('multiprocessing.popen_forkserver',
   'c:\\python\\lib\\multiprocessing\\popen_forkserver.py',
   'PYMODULE'),
  ('multiprocessing.sharedctypes',
   'c:\\python\\lib\\multiprocessing\\sharedctypes.py',
   'PYMODULE'),
  ('multiprocessing.heap',
   'c:\\python\\lib\\multiprocessing\\heap.py',
   'PYMODULE'),
  ('ctypes', 'c:\\python\\lib\\ctypes\\__init__.py', 'PYMODULE'),
  ('ctypes._endian', 'c:\\python\\lib\\ctypes\\_endian.py', 'PYMODULE'),
  ('multiprocessing.pool',
   'c:\\python\\lib\\multiprocessing\\pool.py',
   'PYMODULE'),
  ('multiprocessing.dummy',
   'c:\\python\\lib\\multiprocessing\\dummy\\__init__.py',
   'PYMODULE'),
  ('multiprocessing.dummy.connection',
   'c:\\python\\lib\\multiprocessing\\dummy\\connection.py',
   'PYMODULE'),
  ('queue', 'c:\\python\\lib\\queue.py', 'PYMODULE'),
  ('multiprocessing.queues',
   'c:\\python\\lib\\multiprocessing\\queues.py',
   'PYMODULE'),
  ('multiprocessing.synchronize',
   'c:\\python\\lib\\multiprocessing\\synchronize.py',
   'PYMODULE'),
  ('multiprocessing.managers',
   'c:\\python\\lib\\multiprocessing\\managers.py',
   'PYMODULE'),
  ('multiprocessing.shared_memory',
   'c:\\python\\lib\\multiprocessing\\shared_memory.py',
   'PYMODULE'),
  ('secrets', 'c:\\python\\lib\\secrets.py', 'PYMODULE'),
  ('multiprocessing.reduction',
   'c:\\python\\lib\\multiprocessing\\reduction.py',
   'PYMODULE'),
  ('pickle', 'c:\\python\\lib\\pickle.py', 'PYMODULE'),
  ('pprint', 'c:\\python\\lib\\pprint.py', 'PYMODULE'),
  ('doctest', 'c:\\python\\lib\\doctest.py', 'PYMODULE'),
  ('unittest', 'c:\\python\\lib\\unittest\\__init__.py', 'PYMODULE'),
  ('unittest.signals', 'c:\\python\\lib\\unittest\\signals.py', 'PYMODULE'),
  ('unittest.main', 'c:\\python\\lib\\unittest\\main.py', 'PYMODULE'),
  ('unittest.runner', 'c:\\python\\lib\\unittest\\runner.py', 'PYMODULE'),
  ('unittest.loader', 'c:\\python\\lib\\unittest\\loader.py', 'PYMODULE'),
  ('unittest.suite', 'c:\\python\\lib\\unittest\\suite.py', 'PYMODULE'),
  ('unittest.case', 'c:\\python\\lib\\unittest\\case.py', 'PYMODULE'),
  ('unittest.async_case',
   'c:\\python\\lib\\unittest\\async_case.py',
   'PYMODULE'),
  ('asyncio', 'c:\\python\\lib\\asyncio\\__init__.py', 'PYMODULE'),
  ('asyncio.unix_events',
   'c:\\python\\lib\\asyncio\\unix_events.py',
   'PYMODULE'),
  ('asyncio.log', 'c:\\python\\lib\\asyncio\\log.py', 'PYMODULE'),
  ('asyncio.windows_events',
   'c:\\python\\lib\\asyncio\\windows_events.py',
   'PYMODULE'),
  ('asyncio.windows_utils',
   'c:\\python\\lib\\asyncio\\windows_utils.py',
   'PYMODULE'),
  ('asyncio.selector_events',
   'c:\\python\\lib\\asyncio\\selector_events.py',
   'PYMODULE'),
  ('asyncio.proactor_events',
   'c:\\python\\lib\\asyncio\\proactor_events.py',
   'PYMODULE'),
  ('asyncio.base_subprocess',
   'c:\\python\\lib\\asyncio\\base_subprocess.py',
   'PYMODULE'),
  ('asyncio.subprocess', 'c:\\python\\lib\\asyncio\\subprocess.py', 'PYMODULE'),
  ('asyncio.streams', 'c:\\python\\lib\\asyncio\\streams.py', 'PYMODULE'),
  ('asyncio.queues', 'c:\\python\\lib\\asyncio\\queues.py', 'PYMODULE'),
  ('asyncio.runners', 'c:\\python\\lib\\asyncio\\runners.py', 'PYMODULE'),
  ('asyncio.events', 'c:\\python\\lib\\asyncio\\events.py', 'PYMODULE'),
  ('asyncio.trsock', 'c:\\python\\lib\\asyncio\\trsock.py', 'PYMODULE'),
  ('asyncio.staggered', 'c:\\python\\lib\\asyncio\\staggered.py', 'PYMODULE'),
  ('asyncio.tasks', 'c:\\python\\lib\\asyncio\\tasks.py', 'PYMODULE'),
  ('concurrent.futures',
   'c:\\python\\lib\\concurrent\\futures\\__init__.py',
   'PYMODULE'),
  ('concurrent.futures.thread',
   'c:\\python\\lib\\concurrent\\futures\\thread.py',
   'PYMODULE'),
  ('concurrent.futures.process',
   'c:\\python\\lib\\concurrent\\futures\\process.py',
   'PYMODULE'),
  ('concurrent.futures._base',
   'c:\\python\\lib\\concurrent\\futures\\_base.py',
   'PYMODULE'),
  ('concurrent', 'c:\\python\\lib\\concurrent\\__init__.py', 'PYMODULE'),
  ('asyncio.base_tasks', 'c:\\python\\lib\\asyncio\\base_tasks.py', 'PYMODULE'),
  ('asyncio.locks', 'c:\\python\\lib\\asyncio\\locks.py', 'PYMODULE'),
  ('asyncio.sslproto', 'c:\\python\\lib\\asyncio\\sslproto.py', 'PYMODULE'),
  ('asyncio.transports', 'c:\\python\\lib\\asyncio\\transports.py', 'PYMODULE'),
  ('asyncio.base_events',
   'c:\\python\\lib\\asyncio\\base_events.py',
   'PYMODULE'),
  ('asyncio.protocols', 'c:\\python\\lib\\asyncio\\protocols.py', 'PYMODULE'),
  ('asyncio.futures', 'c:\\python\\lib\\asyncio\\futures.py', 'PYMODULE'),
  ('asyncio.coroutines', 'c:\\python\\lib\\asyncio\\coroutines.py', 'PYMODULE'),
  ('asyncio.base_futures',
   'c:\\python\\lib\\asyncio\\base_futures.py',
   'PYMODULE'),
  ('asyncio.exceptions', 'c:\\python\\lib\\asyncio\\exceptions.py', 'PYMODULE'),
  ('asyncio.format_helpers',
   'c:\\python\\lib\\asyncio\\format_helpers.py',
   'PYMODULE'),
  ('asyncio.constants', 'c:\\python\\lib\\asyncio\\constants.py', 'PYMODULE'),
  ('unittest.result', 'c:\\python\\lib\\unittest\\result.py', 'PYMODULE'),
  ('unittest.util', 'c:\\python\\lib\\unittest\\util.py', 'PYMODULE'),
  ('pdb', 'c:\\python\\lib\\pdb.py', 'PYMODULE'),
  ('pydoc', 'c:\\python\\lib\\pydoc.py', 'PYMODULE'),
  ('webbrowser', 'c:\\python\\lib\\webbrowser.py', 'PYMODULE'),
  ('http.server', 'c:\\python\\lib\\http\\server.py', 'PYMODULE'),
  ('socketserver', 'c:\\python\\lib\\socketserver.py', 'PYMODULE'),
  ('html', 'c:\\python\\lib\\html\\__init__.py', 'PYMODULE'),
  ('html.entities', 'c:\\python\\lib\\html\\entities.py', 'PYMODULE'),
  ('pydoc_data.topics', 'c:\\python\\lib\\pydoc_data\\topics.py', 'PYMODULE'),
  ('pydoc_data', 'c:\\python\\lib\\pydoc_data\\__init__.py', 'PYMODULE'),
  ('tty', 'c:\\python\\lib\\tty.py', 'PYMODULE'),
  ('sysconfig', 'c:\\python\\lib\\sysconfig.py', 'PYMODULE'),
  ('_osx_support', 'c:\\python\\lib\\_osx_support.py', 'PYMODULE'),
  ('distutils.log', 'c:\\python\\lib\\distutils\\log.py', 'PYMODULE'),
  ('distutils', 'c:\\python\\lib\\distutils\\__init__.py', 'PYMODULE'),
  ('distutils.ccompiler',
   'c:\\python\\lib\\distutils\\ccompiler.py',
   'PYMODULE'),
  ('distutils.fancy_getopt',
   'c:\\python\\lib\\distutils\\fancy_getopt.py',
   'PYMODULE'),
  ('distutils.debug', 'c:\\python\\lib\\distutils\\debug.py', 'PYMODULE'),
  ('distutils.util', 'c:\\python\\lib\\distutils\\util.py', 'PYMODULE'),
  ('distutils.filelist', 'c:\\python\\lib\\distutils\\filelist.py', 'PYMODULE'),
  ('distutils.dep_util', 'c:\\python\\lib\\distutils\\dep_util.py', 'PYMODULE'),
  ('distutils.dir_util', 'c:\\python\\lib\\distutils\\dir_util.py', 'PYMODULE'),
  ('distutils.file_util',
   'c:\\python\\lib\\distutils\\file_util.py',
   'PYMODULE'),
  ('distutils.spawn', 'c:\\python\\lib\\distutils\\spawn.py', 'PYMODULE'),
  ('distutils.errors', 'c:\\python\\lib\\distutils\\errors.py', 'PYMODULE'),
  ('distutils.sysconfig',
   'c:\\python\\lib\\distutils\\sysconfig.py',
   'PYMODULE'),
  ('distutils.text_file',
   'c:\\python\\lib\\distutils\\text_file.py',
   'PYMODULE'),
  ('platform', 'c:\\python\\lib\\platform.py', 'PYMODULE'),
  ('plistlib', 'c:\\python\\lib\\plistlib.py', 'PYMODULE'),
  ('pkgutil', 'c:\\python\\lib\\pkgutil.py', 'PYMODULE'),
  ('zipimport', 'c:\\python\\lib\\zipimport.py', 'PYMODULE'),
  ('runpy', 'c:\\python\\lib\\runpy.py', 'PYMODULE'),
  ('glob', 'c:\\python\\lib\\glob.py', 'PYMODULE'),
  ('code', 'c:\\python\\lib\\code.py', 'PYMODULE'),
  ('codeop', 'c:\\python\\lib\\codeop.py', 'PYMODULE'),
  ('dis', 'c:\\python\\lib\\dis.py', 'PYMODULE'),
  ('opcode', 'c:\\python\\lib\\opcode.py', 'PYMODULE'),
  ('bdb', 'c:\\python\\lib\\bdb.py', 'PYMODULE'),
  ('cmd', 'c:\\python\\lib\\cmd.py', 'PYMODULE'),
  ('inspect', 'c:\\python\\lib\\inspect.py', 'PYMODULE'),
  ('ast', 'c:\\python\\lib\\ast.py', 'PYMODULE'),
  ('difflib', 'c:\\python\\lib\\difflib.py', 'PYMODULE'),
  ('__future__', 'c:\\python\\lib\\__future__.py', 'PYMODULE'),
  ('_compat_pickle', 'c:\\python\\lib\\_compat_pickle.py', 'PYMODULE'),
  ('multiprocessing.popen_fork',
   'c:\\python\\lib\\multiprocessing\\popen_fork.py',
   'PYMODULE'),
  ('multiprocessing.popen_spawn_win32',
   'c:\\python\\lib\\multiprocessing\\popen_spawn_win32.py',
   'PYMODULE'),
  ('subprocess', 'c:\\python\\lib\\subprocess.py', 'PYMODULE'),
  ('multiprocessing.spawn',
   'c:\\python\\lib\\multiprocessing\\spawn.py',
   'PYMODULE'),
  ('multiprocessing',
   'c:\\python\\lib\\multiprocessing\\__init__.py',
   'PYMODULE'),
  ('_py_abc', 'c:\\python\\lib\\_py_abc.py', 'PYMODULE'),
  ('tracemalloc', 'c:\\python\\lib\\tracemalloc.py', 'PYMODULE'),
  ('stringprep', 'c:\\python\\lib\\stringprep.py', 'PYMODULE'),
  ('typing', 'c:\\python\\lib\\typing.py', 'PYMODULE'),
  ('selenium.webdriver.support.wait',
   'c:\\python\\lib\\site-packages\\selenium\\webdriver\\support\\wait.py',
   'PYMODULE'),
  ('selenium.common.exceptions',
   'c:\\python\\lib\\site-packages\\selenium\\common\\exceptions.py',
   'PYMODULE'),
  ('selenium.common',
   'c:\\python\\lib\\site-packages\\selenium\\common\\__init__.py',
   'PYMODULE'),
  ('selenium.webdriver.support.ui',
   'c:\\python\\lib\\site-packages\\selenium\\webdriver\\support\\ui.py',
   'PYMODULE'),
  ('selenium.webdriver.support.select',
   'c:\\python\\lib\\site-packages\\selenium\\webdriver\\support\\select.py',
   'PYMODULE'),
  ('selenium.webdriver.support.expected_conditions',
   'c:\\python\\lib\\site-packages\\selenium\\webdriver\\support\\expected_conditions.py',
   'PYMODULE'),
  ('selenium.webdriver.support',
   'c:\\python\\lib\\site-packages\\selenium\\webdriver\\support\\__init__.py',
   'PYMODULE'),
  ('selenium.webdriver.remote.webelement',
   'c:\\python\\lib\\site-packages\\selenium\\webdriver\\remote\\webelement.py',
   'PYMODULE'),
  ('selenium.webdriver.remote',
   'c:\\python\\lib\\site-packages\\selenium\\webdriver\\remote\\__init__.py',
   'PYMODULE'),
  ('selenium.webdriver.remote.utils',
   'c:\\python\\lib\\site-packages\\selenium\\webdriver\\remote\\utils.py',
   'PYMODULE'),
  ('selenium.webdriver.remote.command',
   'c:\\python\\lib\\site-packages\\selenium\\webdriver\\remote\\command.py',
   'PYMODULE'),
  ('selenium.webdriver.common.utils',
   'c:\\python\\lib\\site-packages\\selenium\\webdriver\\common\\utils.py',
   'PYMODULE'),
  ('selenium.webdriver.common',
   'c:\\python\\lib\\site-packages\\selenium\\webdriver\\common\\__init__.py',
   'PYMODULE'),
  ('selenium.webdriver.common.service',
   'c:\\python\\lib\\site-packages\\selenium\\webdriver\\common\\service.py',
   'PYMODULE'),
  ('selenium.webdriver.remote.webdriver',
   'c:\\python\\lib\\site-packages\\selenium\\webdriver\\remote\\webdriver.py',
   'PYMODULE'),
  ('selenium.webdriver.common.html5.application_cache',
   'c:\\python\\lib\\site-packages\\selenium\\webdriver\\common\\html5\\application_cache.py',
   'PYMODULE'),
  ('selenium.webdriver.common.html5',
   'c:\\python\\lib\\site-packages\\selenium\\webdriver\\common\\html5\\__init__.py',
   'PYMODULE'),
  ('selenium.webdriver.remote.mobile',
   'c:\\python\\lib\\site-packages\\selenium\\webdriver\\remote\\mobile.py',
   'PYMODULE'),
  ('selenium.webdriver.remote.switch_to',
   'c:\\python\\lib\\site-packages\\selenium\\webdriver\\remote\\switch_to.py',
   'PYMODULE'),
  ('selenium.webdriver.common.alert',
   'c:\\python\\lib\\site-packages\\selenium\\webdriver\\common\\alert.py',
   'PYMODULE'),
  ('selenium.webdriver.remote.errorhandler',
   'c:\\python\\lib\\site-packages\\selenium\\webdriver\\remote\\errorhandler.py',
   'PYMODULE'),
  ('selenium.webdriver.remote.remote_connection',
   'c:\\python\\lib\\site-packages\\selenium\\webdriver\\remote\\remote_connection.py',
   'PYMODULE'),
  ('urllib3',
   'c:\\python\\lib\\site-packages\\urllib3\\__init__.py',
   'PYMODULE'),
  ('urllib3._version',
   'c:\\python\\lib\\site-packages\\urllib3\\_version.py',
   'PYMODULE'),
  ('urllib3.util.retry',
   'c:\\python\\lib\\site-packages\\urllib3\\util\\retry.py',
   'PYMODULE'),
  ('urllib3.util',
   'c:\\python\\lib\\site-packages\\urllib3\\util\\__init__.py',
   'PYMODULE'),
  ('urllib3.util.wait',
   'c:\\python\\lib\\site-packages\\urllib3\\util\\wait.py',
   'PYMODULE'),
  ('urllib3.util.ssl_',
   'c:\\python\\lib\\site-packages\\urllib3\\util\\ssl_.py',
   'PYMODULE'),
  ('urllib3.util.response',
   'c:\\python\\lib\\site-packages\\urllib3\\util\\response.py',
   'PYMODULE'),
  ('urllib3.util.connection',
   'c:\\python\\lib\\site-packages\\urllib3\\util\\connection.py',
   'PYMODULE'),
  ('urllib3.contrib._appengine_environ',
   'c:\\python\\lib\\site-packages\\urllib3\\contrib\\_appengine_environ.py',
   'PYMODULE'),
  ('urllib3.contrib',
   'c:\\python\\lib\\site-packages\\urllib3\\contrib\\__init__.py',
   'PYMODULE'),
  ('urllib3.contrib.pyopenssl',
   'c:\\python\\lib\\site-packages\\urllib3\\contrib\\pyopenssl.py',
   'PYMODULE'),
  ('idna', 'c:\\python\\lib\\site-packages\\idna\\__init__.py', 'PYMODULE'),
  ('idna.core', 'c:\\python\\lib\\site-packages\\idna\\core.py', 'PYMODULE'),
  ('idna.uts46data',
   'c:\\python\\lib\\site-packages\\idna\\uts46data.py',
   'PYMODULE'),
  ('idna.intranges',
   'c:\\python\\lib\\site-packages\\idna\\intranges.py',
   'PYMODULE'),
  ('idna.idnadata',
   'c:\\python\\lib\\site-packages\\idna\\idnadata.py',
   'PYMODULE'),
  ('idna.package_data',
   'c:\\python\\lib\\site-packages\\idna\\package_data.py',
   'PYMODULE'),
  ('urllib3.packages.backports.makefile',
   'c:\\python\\lib\\site-packages\\urllib3\\packages\\backports\\makefile.py',
   'PYMODULE'),
  ('urllib3.packages.backports',
   'c:\\python\\lib\\site-packages\\urllib3\\packages\\backports\\__init__.py',
   'PYMODULE'),
  ('urllib3.packages.six',
   'c:\\python\\lib\\site-packages\\urllib3\\packages\\six.py',
   'PYMODULE'),
  ('urllib3.packages',
   'c:\\python\\lib\\site-packages\\urllib3\\packages\\__init__.py',
   'PYMODULE'),
  ('urllib3.packages.ssl_match_hostname',
   'c:\\python\\lib\\site-packages\\urllib3\\packages\\ssl_match_hostname\\__init__.py',
   'PYMODULE'),
  ('urllib3.packages.ssl_match_hostname._implementation',
   'c:\\python\\lib\\site-packages\\urllib3\\packages\\ssl_match_hostname\\_implementation.py',
   'PYMODULE'),
  ('ipaddress', 'c:\\python\\lib\\ipaddress.py', 'PYMODULE'),
  ('urllib3.util.timeout',
   'c:\\python\\lib\\site-packages\\urllib3\\util\\timeout.py',
   'PYMODULE'),
  ('urllib3.util.url',
   'c:\\python\\lib\\site-packages\\urllib3\\util\\url.py',
   'PYMODULE'),
  ('urllib3.util.request',
   'c:\\python\\lib\\site-packages\\urllib3\\util\\request.py',
   'PYMODULE'),
  ('urllib3.response',
   'c:\\python\\lib\\site-packages\\urllib3\\response.py',
   'PYMODULE'),
  ('urllib3.connection',
   'c:\\python\\lib\\site-packages\\urllib3\\connection.py',
   'PYMODULE'),
  ('urllib3._collections',
   'c:\\python\\lib\\site-packages\\urllib3\\_collections.py',
   'PYMODULE'),
  ('urllib3.poolmanager',
   'c:\\python\\lib\\site-packages\\urllib3\\poolmanager.py',
   'PYMODULE'),
  ('urllib3.request',
   'c:\\python\\lib\\site-packages\\urllib3\\request.py',
   'PYMODULE'),
  ('urllib3.filepost',
   'c:\\python\\lib\\site-packages\\urllib3\\filepost.py',
   'PYMODULE'),
  ('urllib3.fields',
   'c:\\python\\lib\\site-packages\\urllib3\\fields.py',
   'PYMODULE'),
  ('urllib3.exceptions',
   'c:\\python\\lib\\site-packages\\urllib3\\exceptions.py',
   'PYMODULE'),
  ('urllib3.connectionpool',
   'c:\\python\\lib\\site-packages\\urllib3\\connectionpool.py',
   'PYMODULE'),
  ('urllib3.util.queue',
   'c:\\python\\lib\\site-packages\\urllib3\\util\\queue.py',
   'PYMODULE'),
  ('selenium.webdriver.remote.file_detector',
   'c:\\python\\lib\\site-packages\\selenium\\webdriver\\remote\\file_detector.py',
   'PYMODULE'),
  ('selenium.webdriver.common.keys',
   'c:\\python\\lib\\site-packages\\selenium\\webdriver\\common\\keys.py',
   'PYMODULE'),
  ('selenium.webdriver.common.desired_capabilities',
   'c:\\python\\lib\\site-packages\\selenium\\webdriver\\common\\desired_capabilities.py',
   'PYMODULE'),
  ('selenium.webdriver.common.by',
   'c:\\python\\lib\\site-packages\\selenium\\webdriver\\common\\by.py',
   'PYMODULE'),
  ('selenium.webdriver.common.action_chains',
   'c:\\python\\lib\\site-packages\\selenium\\webdriver\\common\\action_chains.py',
   'PYMODULE'),
  ('selenium.webdriver.common.actions.action_builder',
   'c:\\python\\lib\\site-packages\\selenium\\webdriver\\common\\actions\\action_builder.py',
   'PYMODULE'),
  ('selenium.webdriver.common.actions.pointer_input',
   'c:\\python\\lib\\site-packages\\selenium\\webdriver\\common\\actions\\pointer_input.py',
   'PYMODULE'),
  ('selenium.webdriver.common.actions.input_device',
   'c:\\python\\lib\\site-packages\\selenium\\webdriver\\common\\actions\\input_device.py',
   'PYMODULE'),
  ('uuid', 'c:\\python\\lib\\uuid.py', 'PYMODULE'),
  ('ctypes.util', 'c:\\python\\lib\\ctypes\\util.py', 'PYMODULE'),
  ('ctypes._aix', 'c:\\python\\lib\\ctypes\\_aix.py', 'PYMODULE'),
  ('ctypes.macholib.dyld',
   'c:\\python\\lib\\ctypes\\macholib\\dyld.py',
   'PYMODULE'),
  ('ctypes.macholib',
   'c:\\python\\lib\\ctypes\\macholib\\__init__.py',
   'PYMODULE'),
  ('ctypes.macholib.dylib',
   'c:\\python\\lib\\ctypes\\macholib\\dylib.py',
   'PYMODULE'),
  ('ctypes.macholib.framework',
   'c:\\python\\lib\\ctypes\\macholib\\framework.py',
   'PYMODULE'),
  ('netbios',
   'c:\\python\\lib\\site-packages\\win32\\lib\\netbios.py',
   'PYMODULE'),
  ('selenium.webdriver.common.actions.pointer_actions',
   'c:\\python\\lib\\site-packages\\selenium\\webdriver\\common\\actions\\pointer_actions.py',
   'PYMODULE'),
  ('selenium.webdriver.common.actions.mouse_button',
   'c:\\python\\lib\\site-packages\\selenium\\webdriver\\common\\actions\\mouse_button.py',
   'PYMODULE'),
  ('selenium.webdriver.common.actions.key_input',
   'c:\\python\\lib\\site-packages\\selenium\\webdriver\\common\\actions\\key_input.py',
   'PYMODULE'),
  ('selenium.webdriver.common.actions.key_actions',
   'c:\\python\\lib\\site-packages\\selenium\\webdriver\\common\\actions\\key_actions.py',
   'PYMODULE'),
  ('selenium.webdriver.common.actions.interaction',
   'c:\\python\\lib\\site-packages\\selenium\\webdriver\\common\\actions\\interaction.py',
   'PYMODULE'),
  ('selenium.webdriver.common.actions',
   'c:\\python\\lib\\site-packages\\selenium\\webdriver\\common\\actions\\__init__.py',
   'PYMODULE'),
  ('selenium.webdriver.chrome.options',
   'c:\\python\\lib\\site-packages\\selenium\\webdriver\\chrome\\options.py',
   'PYMODULE'),
  ('selenium.webdriver.chrome',
   'c:\\python\\lib\\site-packages\\selenium\\webdriver\\chrome\\__init__.py',
   'PYMODULE'),
  ('selenium.webdriver',
   'c:\\python\\lib\\site-packages\\selenium\\webdriver\\__init__.py',
   'PYMODULE'),
  ('selenium.webdriver.common.proxy',
   'c:\\python\\lib\\site-packages\\selenium\\webdriver\\common\\proxy.py',
   'PYMODULE'),
  ('selenium.webdriver.common.touch_actions',
   'c:\\python\\lib\\site-packages\\selenium\\webdriver\\common\\touch_actions.py',
   'PYMODULE'),
  ('selenium.webdriver.webkitgtk.options',
   'c:\\python\\lib\\site-packages\\selenium\\webdriver\\webkitgtk\\options.py',
   'PYMODULE'),
  ('selenium.webdriver.webkitgtk',
   'c:\\python\\lib\\site-packages\\selenium\\webdriver\\webkitgtk\\__init__.py',
   'PYMODULE'),
  ('selenium.webdriver.webkitgtk.webdriver',
   'c:\\python\\lib\\site-packages\\selenium\\webdriver\\webkitgtk\\webdriver.py',
   'PYMODULE'),
  ('selenium.webdriver.webkitgtk.service',
   'c:\\python\\lib\\site-packages\\selenium\\webdriver\\webkitgtk\\service.py',
   'PYMODULE'),
  ('selenium.webdriver.android.webdriver',
   'c:\\python\\lib\\site-packages\\selenium\\webdriver\\android\\webdriver.py',
   'PYMODULE'),
  ('selenium.webdriver.android',
   'c:\\python\\lib\\site-packages\\selenium\\webdriver\\android\\__init__.py',
   'PYMODULE'),
  ('selenium.webdriver.phantomjs.webdriver',
   'c:\\python\\lib\\site-packages\\selenium\\webdriver\\phantomjs\\webdriver.py',
   'PYMODULE'),
  ('selenium.webdriver.phantomjs',
   'c:\\python\\lib\\site-packages\\selenium\\webdriver\\phantomjs\\__init__.py',
   'PYMODULE'),
  ('selenium.webdriver.phantomjs.service',
   'c:\\python\\lib\\site-packages\\selenium\\webdriver\\phantomjs\\service.py',
   'PYMODULE'),
  ('selenium.webdriver.blackberry.webdriver',
   'c:\\python\\lib\\site-packages\\selenium\\webdriver\\blackberry\\webdriver.py',
   'PYMODULE'),
  ('selenium.webdriver.blackberry',
   'c:\\python\\lib\\site-packages\\selenium\\webdriver\\blackberry\\__init__.py',
   'PYMODULE'),
  ('selenium.webdriver.safari.webdriver',
   'c:\\python\\lib\\site-packages\\selenium\\webdriver\\safari\\webdriver.py',
   'PYMODULE'),
  ('selenium.webdriver.safari',
   'c:\\python\\lib\\site-packages\\selenium\\webdriver\\safari\\__init__.py',
   'PYMODULE'),
  ('selenium.webdriver.safari.remote_connection',
   'c:\\python\\lib\\site-packages\\selenium\\webdriver\\safari\\remote_connection.py',
   'PYMODULE'),
  ('selenium.webdriver.safari.service',
   'c:\\python\\lib\\site-packages\\selenium\\webdriver\\safari\\service.py',
   'PYMODULE'),
  ('selenium.webdriver.opera.webdriver',
   'c:\\python\\lib\\site-packages\\selenium\\webdriver\\opera\\webdriver.py',
   'PYMODULE'),
  ('selenium.webdriver.opera',
   'c:\\python\\lib\\site-packages\\selenium\\webdriver\\opera\\__init__.py',
   'PYMODULE'),
  ('selenium.webdriver.opera.options',
   'c:\\python\\lib\\site-packages\\selenium\\webdriver\\opera\\options.py',
   'PYMODULE'),
  ('selenium.webdriver.edge.webdriver',
   'c:\\python\\lib\\site-packages\\selenium\\webdriver\\edge\\webdriver.py',
   'PYMODULE'),
  ('selenium.webdriver.edge',
   'c:\\python\\lib\\site-packages\\selenium\\webdriver\\edge\\__init__.py',
   'PYMODULE'),
  ('selenium.webdriver.edge.service',
   'c:\\python\\lib\\site-packages\\selenium\\webdriver\\edge\\service.py',
   'PYMODULE'),
  ('selenium.webdriver.ie.options',
   'c:\\python\\lib\\site-packages\\selenium\\webdriver\\ie\\options.py',
   'PYMODULE'),
  ('selenium.webdriver.ie',
   'c:\\python\\lib\\site-packages\\selenium\\webdriver\\ie\\__init__.py',
   'PYMODULE'),
  ('selenium.webdriver.ie.webdriver',
   'c:\\python\\lib\\site-packages\\selenium\\webdriver\\ie\\webdriver.py',
   'PYMODULE'),
  ('selenium.webdriver.ie.service',
   'c:\\python\\lib\\site-packages\\selenium\\webdriver\\ie\\service.py',
   'PYMODULE'),
  ('selenium.webdriver.chrome.webdriver',
   'c:\\python\\lib\\site-packages\\selenium\\webdriver\\chrome\\webdriver.py',
   'PYMODULE'),
  ('selenium.webdriver.chrome.service',
   'c:\\python\\lib\\site-packages\\selenium\\webdriver\\chrome\\service.py',
   'PYMODULE'),
  ('selenium.webdriver.chrome.remote_connection',
   'c:\\python\\lib\\site-packages\\selenium\\webdriver\\chrome\\remote_connection.py',
   'PYMODULE'),
  ('selenium.webdriver.firefox.options',
   'c:\\python\\lib\\site-packages\\selenium\\webdriver\\firefox\\options.py',
   'PYMODULE'),
  ('selenium.webdriver.firefox',
   'c:\\python\\lib\\site-packages\\selenium\\webdriver\\firefox\\__init__.py',
   'PYMODULE'),
  ('selenium.webdriver.firefox.firefox_binary',
   'c:\\python\\lib\\site-packages\\selenium\\webdriver\\firefox\\firefox_binary.py',
   'PYMODULE'),
  ('selenium.webdriver.firefox.firefox_profile',
   'c:\\python\\lib\\site-packages\\selenium\\webdriver\\firefox\\firefox_profile.py',
   'PYMODULE'),
  ('xml.dom.minidom', 'c:\\python\\lib\\xml\\dom\\minidom.py', 'PYMODULE'),
  ('xml.dom.pulldom', 'c:\\python\\lib\\xml\\dom\\pulldom.py', 'PYMODULE'),
  ('xml.dom.expatbuilder',
   'c:\\python\\lib\\xml\\dom\\expatbuilder.py',
   'PYMODULE'),
  ('xml.dom.NodeFilter',
   'c:\\python\\lib\\xml\\dom\\NodeFilter.py',
   'PYMODULE'),
  ('xml.dom.xmlbuilder',
   'c:\\python\\lib\\xml\\dom\\xmlbuilder.py',
   'PYMODULE'),
  ('xml.dom.minicompat',
   'c:\\python\\lib\\xml\\dom\\minicompat.py',
   'PYMODULE'),
  ('xml.dom.domreg', 'c:\\python\\lib\\xml\\dom\\domreg.py', 'PYMODULE'),
  ('xml.dom', 'c:\\python\\lib\\xml\\dom\\__init__.py', 'PYMODULE'),
  ('selenium.webdriver.firefox.webdriver',
   'c:\\python\\lib\\site-packages\\selenium\\webdriver\\firefox\\webdriver.py',
   'PYMODULE'),
  ('selenium.webdriver.firefox.webelement',
   'c:\\python\\lib\\site-packages\\selenium\\webdriver\\firefox\\webelement.py',
   'PYMODULE'),
  ('selenium.webdriver.firefox.service',
   'c:\\python\\lib\\site-packages\\selenium\\webdriver\\firefox\\service.py',
   'PYMODULE'),
  ('selenium.webdriver.firefox.remote_connection',
   'c:\\python\\lib\\site-packages\\selenium\\webdriver\\firefox\\remote_connection.py',
   'PYMODULE'),
  ('selenium.webdriver.firefox.extension_connection',
   'c:\\python\\lib\\site-packages\\selenium\\webdriver\\firefox\\extension_connection.py',
   'PYMODULE'),
  ('selenium',
   'c:\\python\\lib\\site-packages\\selenium\\__init__.py',
   'PYMODULE'),
  ('datetime', 'c:\\python\\lib\\datetime.py', 'PYMODULE'),
  ('_strptime', 'c:\\python\\lib\\_strptime.py', 'PYMODULE'),
  ('urllib.parse', 'c:\\python\\lib\\urllib\\parse.py', 'PYMODULE'),
  ('sqlite3', 'c:\\python\\lib\\sqlite3\\__init__.py', 'PYMODULE'),
  ('sqlite3.dump', 'c:\\python\\lib\\sqlite3\\dump.py', 'PYMODULE'),
  ('sqlite3.dbapi2', 'c:\\python\\lib\\sqlite3\\dbapi2.py', 'PYMODULE'),
  ('requests',
   'c:\\python\\lib\\site-packages\\requests\\__init__.py',
   'PYMODULE'),
  ('requests.status_codes',
   'c:\\python\\lib\\site-packages\\requests\\status_codes.py',
   'PYMODULE'),
  ('requests.structures',
   'c:\\python\\lib\\site-packages\\requests\\structures.py',
   'PYMODULE'),
  ('requests.compat',
   'c:\\python\\lib\\site-packages\\requests\\compat.py',
   'PYMODULE'),
  ('http.cookies', 'c:\\python\\lib\\http\\cookies.py', 'PYMODULE'),
  ('requests.api',
   'c:\\python\\lib\\site-packages\\requests\\api.py',
   'PYMODULE'),
  ('requests.sessions',
   'c:\\python\\lib\\site-packages\\requests\\sessions.py',
   'PYMODULE'),
  ('requests.adapters',
   'c:\\python\\lib\\site-packages\\requests\\adapters.py',
   'PYMODULE'),
  ('urllib3.contrib.socks',
   'c:\\python\\lib\\site-packages\\urllib3\\contrib\\socks.py',
   'PYMODULE'),
  ('requests._internal_utils',
   'c:\\python\\lib\\site-packages\\requests\\_internal_utils.py',
   'PYMODULE'),
  ('requests.hooks',
   'c:\\python\\lib\\site-packages\\requests\\hooks.py',
   'PYMODULE'),
  ('requests.cookies',
   'c:\\python\\lib\\site-packages\\requests\\cookies.py',
   'PYMODULE'),
  ('dummy_threading', 'c:\\python\\lib\\dummy_threading.py', 'PYMODULE'),
  ('_dummy_thread', 'c:\\python\\lib\\_dummy_thread.py', 'PYMODULE'),
  ('requests.auth',
   'c:\\python\\lib\\site-packages\\requests\\auth.py',
   'PYMODULE'),
  ('requests.models',
   'c:\\python\\lib\\site-packages\\requests\\models.py',
   'PYMODULE'),
  ('requests.packages',
   'c:\\python\\lib\\site-packages\\requests\\packages.py',
   'PYMODULE'),
  ('requests.utils',
   'c:\\python\\lib\\site-packages\\requests\\utils.py',
   'PYMODULE'),
  ('requests.certs',
   'c:\\python\\lib\\site-packages\\requests\\certs.py',
   'PYMODULE'),
  ('certifi',
   'c:\\python\\lib\\site-packages\\certifi\\__init__.py',
   'PYMODULE'),
  ('certifi.core',
   'c:\\python\\lib\\site-packages\\certifi\\core.py',
   'PYMODULE'),
  ('importlib.resources',
   'c:\\python\\lib\\importlib\\resources.py',
   'PYMODULE'),
  ('requests.__version__',
   'c:\\python\\lib\\site-packages\\requests\\__version__.py',
   'PYMODULE'),
  ('requests.exceptions',
   'c:\\python\\lib\\site-packages\\requests\\exceptions.py',
   'PYMODULE'),
  ('chardet',
   'c:\\python\\lib\\site-packages\\chardet\\__init__.py',
   'PYMODULE'),
  ('chardet.version',
   'c:\\python\\lib\\site-packages\\chardet\\version.py',
   'PYMODULE'),
  ('chardet.universaldetector',
   'c:\\python\\lib\\site-packages\\chardet\\universaldetector.py',
   'PYMODULE'),
  ('chardet.sbcsgroupprober',
   'c:\\python\\lib\\site-packages\\chardet\\sbcsgroupprober.py',
   'PYMODULE'),
  ('chardet.langturkishmodel',
   'c:\\python\\lib\\site-packages\\chardet\\langturkishmodel.py',
   'PYMODULE'),
  ('chardet.hebrewprober',
   'c:\\python\\lib\\site-packages\\chardet\\hebrewprober.py',
   'PYMODULE'),
  ('chardet.charsetprober',
   'c:\\python\\lib\\site-packages\\chardet\\charsetprober.py',
   'PYMODULE'),
  ('chardet.langhebrewmodel',
   'c:\\python\\lib\\site-packages\\chardet\\langhebrewmodel.py',
   'PYMODULE'),
  ('chardet.langthaimodel',
   'c:\\python\\lib\\site-packages\\chardet\\langthaimodel.py',
   'PYMODULE'),
  ('chardet.langbulgarianmodel',
   'c:\\python\\lib\\site-packages\\chardet\\langbulgarianmodel.py',
   'PYMODULE'),
  ('chardet.langgreekmodel',
   'c:\\python\\lib\\site-packages\\chardet\\langgreekmodel.py',
   'PYMODULE'),
  ('chardet.langcyrillicmodel',
   'c:\\python\\lib\\site-packages\\chardet\\langcyrillicmodel.py',
   'PYMODULE'),
  ('chardet.sbcharsetprober',
   'c:\\python\\lib\\site-packages\\chardet\\sbcharsetprober.py',
   'PYMODULE'),
  ('chardet.mbcsgroupprober',
   'c:\\python\\lib\\site-packages\\chardet\\mbcsgroupprober.py',
   'PYMODULE'),
  ('chardet.euctwprober',
   'c:\\python\\lib\\site-packages\\chardet\\euctwprober.py',
   'PYMODULE'),
  ('chardet.mbcssm',
   'c:\\python\\lib\\site-packages\\chardet\\mbcssm.py',
   'PYMODULE'),
  ('chardet.chardistribution',
   'c:\\python\\lib\\site-packages\\chardet\\chardistribution.py',
   'PYMODULE'),
  ('chardet.jisfreq',
   'c:\\python\\lib\\site-packages\\chardet\\jisfreq.py',
   'PYMODULE'),
  ('chardet.big5freq',
   'c:\\python\\lib\\site-packages\\chardet\\big5freq.py',
   'PYMODULE'),
  ('chardet.gb2312freq',
   'c:\\python\\lib\\site-packages\\chardet\\gb2312freq.py',
   'PYMODULE'),
  ('chardet.euckrfreq',
   'c:\\python\\lib\\site-packages\\chardet\\euckrfreq.py',
   'PYMODULE'),
  ('chardet.euctwfreq',
   'c:\\python\\lib\\site-packages\\chardet\\euctwfreq.py',
   'PYMODULE'),
  ('chardet.codingstatemachine',
   'c:\\python\\lib\\site-packages\\chardet\\codingstatemachine.py',
   'PYMODULE'),
  ('chardet.mbcharsetprober',
   'c:\\python\\lib\\site-packages\\chardet\\mbcharsetprober.py',
   'PYMODULE'),
  ('chardet.big5prober',
   'c:\\python\\lib\\site-packages\\chardet\\big5prober.py',
   'PYMODULE'),
  ('chardet.cp949prober',
   'c:\\python\\lib\\site-packages\\chardet\\cp949prober.py',
   'PYMODULE'),
  ('chardet.euckrprober',
   'c:\\python\\lib\\site-packages\\chardet\\euckrprober.py',
   'PYMODULE'),
  ('chardet.gb2312prober',
   'c:\\python\\lib\\site-packages\\chardet\\gb2312prober.py',
   'PYMODULE'),
  ('chardet.eucjpprober',
   'c:\\python\\lib\\site-packages\\chardet\\eucjpprober.py',
   'PYMODULE'),
  ('chardet.jpcntx',
   'c:\\python\\lib\\site-packages\\chardet\\jpcntx.py',
   'PYMODULE'),
  ('chardet.sjisprober',
   'c:\\python\\lib\\site-packages\\chardet\\sjisprober.py',
   'PYMODULE'),
  ('chardet.utf8prober',
   'c:\\python\\lib\\site-packages\\chardet\\utf8prober.py',
   'PYMODULE'),
  ('chardet.latin1prober',
   'c:\\python\\lib\\site-packages\\chardet\\latin1prober.py',
   'PYMODULE'),
  ('chardet.escprober',
   'c:\\python\\lib\\site-packages\\chardet\\escprober.py',
   'PYMODULE'),
  ('chardet.escsm',
   'c:\\python\\lib\\site-packages\\chardet\\escsm.py',
   'PYMODULE'),
  ('chardet.enums',
   'c:\\python\\lib\\site-packages\\chardet\\enums.py',
   'PYMODULE'),
  ('chardet.charsetgroupprober',
   'c:\\python\\lib\\site-packages\\chardet\\charsetgroupprober.py',
   'PYMODULE'),
  ('chardet.compat',
   'c:\\python\\lib\\site-packages\\chardet\\compat.py',
   'PYMODULE'),
  ('os', 'c:\\python\\lib\\os.py', 'PYMODULE'),
  ('logging', 'c:\\python\\lib\\logging\\__init__.py', 'PYMODULE'),
  ('json', 'c:\\python\\lib\\json\\__init__.py', 'PYMODULE'),
  ('json.encoder', 'c:\\python\\lib\\json\\encoder.py', 'PYMODULE'),
  ('json.decoder', 'c:\\python\\lib\\json\\decoder.py', 'PYMODULE'),
  ('json.scanner', 'c:\\python\\lib\\json\\scanner.py', 'PYMODULE')],
 [('api-ms-win-crt-runtime-l1-1-0.dll',
   'C:\\Windows\\system32\\api-ms-win-crt-runtime-l1-1-0.dll',
   'BINARY'),
  ('api-ms-win-crt-heap-l1-1-0.dll',
   'C:\\Windows\\system32\\api-ms-win-crt-heap-l1-1-0.dll',
   'BINARY'),
  ('api-ms-win-crt-stdio-l1-1-0.dll',
   'C:\\Windows\\system32\\api-ms-win-crt-stdio-l1-1-0.dll',
   'BINARY'),
  ('api-ms-win-crt-math-l1-1-0.dll',
   'C:\\Windows\\system32\\api-ms-win-crt-math-l1-1-0.dll',
   'BINARY'),
  ('VCRUNTIME140.dll', 'c:\\python\\VCRUNTIME140.dll', 'BINARY'),
  ('api-ms-win-crt-locale-l1-1-0.dll',
   'C:\\Windows\\system32\\api-ms-win-crt-locale-l1-1-0.dll',
   'BINARY'),
  ('python38.dll', 'c:\\python\\python38.dll', 'BINARY'),
  ('ucrtbase.dll', 'C:\\Windows\\system32\\ucrtbase.dll', 'BINARY'),
  ('api-ms-win-crt-string-l1-1-0.dll',
   'C:\\Windows\\system32\\api-ms-win-crt-string-l1-1-0.dll',
   'BINARY'),
  ('api-ms-win-crt-convert-l1-1-0.dll',
   'C:\\Windows\\system32\\api-ms-win-crt-convert-l1-1-0.dll',
   'BINARY'),
  ('api-ms-win-crt-filesystem-l1-1-0.dll',
   'C:\\Windows\\system32\\api-ms-win-crt-filesystem-l1-1-0.dll',
   'BINARY'),
  ('api-ms-win-crt-environment-l1-1-0.dll',
   'C:\\Windows\\system32\\api-ms-win-crt-environment-l1-1-0.dll',
   'BINARY'),
  ('api-ms-win-crt-time-l1-1-0.dll',
   'C:\\Windows\\system32\\api-ms-win-crt-time-l1-1-0.dll',
   'BINARY'),
  ('api-ms-win-crt-conio-l1-1-0.dll',
   'C:\\Windows\\system32\\api-ms-win-crt-conio-l1-1-0.dll',
   'BINARY'),
  ('api-ms-win-crt-process-l1-1-0.dll',
   'C:\\Windows\\system32\\api-ms-win-crt-process-l1-1-0.dll',
   'BINARY'),
  ('api-ms-win-core-synch-l1-1-0.dll',
   'C:\\Windows\\system32\\api-ms-win-core-synch-l1-1-0.dll',
   'BINARY'),
  ('api-ms-win-core-libraryloader-l1-1-0.dll',
   'C:\\Windows\\system32\\api-ms-win-core-libraryloader-l1-1-0.dll',
   'BINARY'),
  ('api-ms-win-core-interlocked-l1-1-0.dll',
   'C:\\Windows\\system32\\api-ms-win-core-interlocked-l1-1-0.dll',
   'BINARY'),
  ('api-ms-win-core-string-l1-1-0.dll',
   'C:\\Windows\\system32\\api-ms-win-core-string-l1-1-0.dll',
   'BINARY'),
  ('api-ms-win-core-handle-l1-1-0.dll',
   'C:\\Windows\\system32\\api-ms-win-core-handle-l1-1-0.dll',
   'BINARY'),
  ('api-ms-win-core-processenvironment-l1-1-0.dll',
   'C:\\Windows\\system32\\api-ms-win-core-processenvironment-l1-1-0.dll',
   'BINARY'),
  ('api-ms-win-core-debug-l1-1-0.dll',
   'C:\\Windows\\system32\\api-ms-win-core-debug-l1-1-0.dll',
   'BINARY'),
  ('api-ms-win-core-datetime-l1-1-0.dll',
   'C:\\Windows\\system32\\api-ms-win-core-datetime-l1-1-0.dll',
   'BINARY'),
  ('api-ms-win-core-heap-l1-1-0.dll',
   'C:\\Windows\\system32\\api-ms-win-core-heap-l1-1-0.dll',
   'BINARY'),
  ('api-ms-win-core-file-l1-2-0.dll',
   'C:\\Windows\\system32\\api-ms-win-core-file-l1-2-0.dll',
   'BINARY'),
  ('api-ms-win-core-profile-l1-1-0.dll',
   'C:\\Windows\\system32\\api-ms-win-core-profile-l1-1-0.dll',
   'BINARY'),
  ('api-ms-win-core-console-l1-1-0.dll',
   'C:\\Windows\\system32\\api-ms-win-core-console-l1-1-0.dll',
   'BINARY'),
  ('api-ms-win-core-util-l1-1-0.dll',
   'C:\\Windows\\system32\\api-ms-win-core-util-l1-1-0.dll',
   'BINARY'),
  ('api-ms-win-core-processthreads-l1-1-1.dll',
   'C:\\Windows\\system32\\api-ms-win-core-processthreads-l1-1-1.dll',
   'BINARY'),
  ('api-ms-win-core-file-l2-1-0.dll',
   'C:\\Windows\\system32\\api-ms-win-core-file-l2-1-0.dll',
   'BINARY'),
  ('api-ms-win-core-timezone-l1-1-0.dll',
   'C:\\Windows\\system32\\api-ms-win-core-timezone-l1-1-0.dll',
   'BINARY'),
  ('api-ms-win-core-memory-l1-1-0.dll',
   'C:\\Windows\\system32\\api-ms-win-core-memory-l1-1-0.dll',
   'BINARY'),
  ('api-ms-win-core-file-l1-1-0.dll',
   'C:\\Windows\\system32\\api-ms-win-core-file-l1-1-0.dll',
   'BINARY'),
  ('api-ms-win-core-localization-l1-2-0.dll',
   'C:\\Windows\\system32\\api-ms-win-core-localization-l1-2-0.dll',
   'BINARY'),
  ('api-ms-win-core-processthreads-l1-1-0.dll',
   'C:\\Windows\\system32\\api-ms-win-core-processthreads-l1-1-0.dll',
   'BINARY'),
  ('api-ms-win-core-namedpipe-l1-1-0.dll',
   'C:\\Windows\\system32\\api-ms-win-core-namedpipe-l1-1-0.dll',
   'BINARY'),
  ('api-ms-win-core-rtlsupport-l1-1-0.dll',
   'C:\\Windows\\system32\\api-ms-win-core-rtlsupport-l1-1-0.dll',
   'BINARY'),
  ('api-ms-win-core-sysinfo-l1-1-0.dll',
   'C:\\Windows\\system32\\api-ms-win-core-sysinfo-l1-1-0.dll',
   'BINARY'),
  ('api-ms-win-core-synch-l1-2-0.dll',
   'C:\\Windows\\system32\\api-ms-win-core-synch-l1-2-0.dll',
   'BINARY'),
  ('api-ms-win-core-errorhandling-l1-1-0.dll',
   'C:\\Windows\\system32\\api-ms-win-core-errorhandling-l1-1-0.dll',
   'BINARY'),
  ('_hashlib', 'c:\\python\\DLLs\\_hashlib.pyd', 'EXTENSION'),
  ('_lzma', 'c:\\python\\DLLs\\_lzma.pyd', 'EXTENSION'),
  ('_bz2', 'c:\\python\\DLLs\\_bz2.pyd', 'EXTENSION'),
  ('select', 'c:\\python\\DLLs\\select.pyd', 'EXTENSION'),
  ('_socket', 'c:\\python\\DLLs\\_socket.pyd', 'EXTENSION'),
  ('_ssl', 'c:\\python\\DLLs\\_ssl.pyd', 'EXTENSION'),
  ('_multiprocessing', 'c:\\python\\DLLs\\_multiprocessing.pyd', 'EXTENSION'),
  ('pyexpat', 'c:\\python\\DLLs\\pyexpat.pyd', 'EXTENSION'),
  ('_decimal', 'c:\\python\\DLLs\\_decimal.pyd', 'EXTENSION'),
  ('_ctypes', 'c:\\python\\DLLs\\_ctypes.pyd', 'EXTENSION'),
  ('_queue', 'c:\\python\\DLLs\\_queue.pyd', 'EXTENSION'),
  ('_overlapped', 'c:\\python\\DLLs\\_overlapped.pyd', 'EXTENSION'),
  ('_asyncio', 'c:\\python\\DLLs\\_asyncio.pyd', 'EXTENSION'),
  ('unicodedata', 'c:\\python\\DLLs\\unicodedata.pyd', 'EXTENSION'),
  ('win32wnet',
   'c:\\python\\lib\\site-packages\\win32\\win32wnet.pyd',
   'EXTENSION'),
  ('_sqlite3', 'c:\\python\\DLLs\\_sqlite3.pyd', 'EXTENSION'),
  ('libcrypto-1_1.dll', 'c:\\python\\DLLs\\libcrypto-1_1.dll', 'BINARY'),
  ('libssl-1_1.dll', 'c:\\python\\DLLs\\libssl-1_1.dll', 'BINARY'),
  ('api-ms-win-crt-utility-l1-1-0.dll',
   'C:\\Windows\\system32\\api-ms-win-crt-utility-l1-1-0.dll',
   'BINARY'),
  ('libffi-7.dll', 'c:\\python\\DLLs\\libffi-7.dll', 'BINARY'),
  ('pywintypes38.dll',
   'c:\\python\\Lib\\site-packages\\pywin32_system32\\pywintypes38.dll',
   'BINARY'),
  ('sqlite3.dll', 'c:\\python\\DLLs\\sqlite3.dll', 'BINARY')],
 [],
 [],
 [('base_library.zip',
   'F:\\tools\\Facebook '
   'marketplace\\auto-fb-mp-master\\build\\Auto_FBMP_Crapelinkproduk\\base_library.zip',
   'DATA'),
  ('selenium\\webdriver\\firefox\\x86\\x_ignore_nofocus.so',
   'c:\\python\\lib\\site-packages\\selenium\\webdriver\\firefox\\x86\\x_ignore_nofocus.so',
   'DATA'),
  ('selenium\\webdriver\\remote\\isDisplayed.js',
   'c:\\python\\lib\\site-packages\\selenium\\webdriver\\remote\\isDisplayed.js',
   'DATA'),
  ('certifi\\cacert.pem',
   'c:\\python\\lib\\site-packages\\certifi\\cacert.pem',
   'DATA'),
  ('selenium\\webdriver\\firefox\\webdriver_prefs.json',
   'c:\\python\\lib\\site-packages\\selenium\\webdriver\\firefox\\webdriver_prefs.json',
   'DATA'),
  ('selenium\\webdriver\\remote\\getAttribute.js',
   'c:\\python\\lib\\site-packages\\selenium\\webdriver\\remote\\getAttribute.js',
   'DATA'),
  ('selenium\\webdriver\\firefox\\amd64\\x_ignore_nofocus.so',
   'c:\\python\\lib\\site-packages\\selenium\\webdriver\\firefox\\amd64\\x_ignore_nofocus.so',
   'DATA'),
  ('selenium\\webdriver\\firefox\\webdriver.xpi',
   'c:\\python\\lib\\site-packages\\selenium\\webdriver\\firefox\\webdriver.xpi',
   'DATA')],
 [])
