('F:\\tools\\Facebook '
 'marketplace\\auto-fb-mp-master\\dist\\Auto_FBMP_Scrapelinkproduk.exe',
 True,
 False,
 False,
 'c:\\python\\lib\\site-packages\\PyInstaller\\bootloader\\images\\icon-console.ico',
 None,
 False,
 False,
 '<?xml version="1.0" encoding="UTF-8" standalone="yes"?><assembly xmlns="urn:schemas-microsoft-com:asm.v1" manifestVersion="1.0"><assemblyIdentity type="win32" name="Auto_FBMP_Scrapelinkproduk" processorArchitecture="x86" version="1.0.0.0"/><trustInfo xmlns="urn:schemas-microsoft-com:asm.v3"><security><requestedPrivileges><requestedExecutionLevel level="asInvoker" uiAccess="false"/></requestedPrivileges></security></trustInfo><dependency><dependentAssembly><assemblyIdentity type="win32" name="Microsoft.Windows.Common-Controls" language="*" processorArchitecture="*" version="6.0.0.0" publicKeyToken="6595b64144ccf1df"/><compatibility xmlns="urn:schemas-microsoft-com:compatibility.v1"/></dependentAssembly></dependency><compatibility xmlns="urn:schemas-microsoft-com:compatibility.v1"><application><supportedOS Id="{e2011457-1546-43c5-a5fe-008deee3d3f0}"/><supportedOS Id="{35138b9a-5d96-4fbd-8e2d-a2440225f93a}"/><supportedOS Id="{4a2f28e3-53b9-4441-ba9c-d69d4a4a6e38}"/><supportedOS Id="{1f676c76-80e1-4239-95bb-83d0f6d0da78}"/><supportedOS Id="{8e0f7a12-bfb3-4fe8-b9a5-48fd50a15a9a}"/></application></compatibility><application xmlns="urn:schemas-microsoft-com:asm.v3"><windowsSettings><longPathAware xmlns="http://schemas.microsoft.com/SMI/2016/WindowsSettings">true</longPathAware></windowsSettings></application></assembly>',
 True,
 'Auto_FBMP_Scrapelinkproduk.pkg',
 [('PYZ-00.pyz',
   'F:\\tools\\Facebook '
   'marketplace\\auto-fb-mp-master\\build\\Auto_FBMP_Scrapelinkproduk\\PYZ-00.pyz',
   'PYZ'),
  ('struct', 'c:\\python\\lib\\struct.pyo', 'PYMODULE'),
  ('pyimod01_os_path',
   'c:\\python\\lib\\site-packages\\PyInstaller\\loader\\pyimod01_os_path.pyc',
   'PYMODULE'),
  ('pyimod02_archive',
   'c:\\python\\lib\\site-packages\\PyInstaller\\loader\\pyimod02_archive.pyc',
   'PYMODULE'),
  ('pyimod03_importers',
   'c:\\python\\lib\\site-packages\\PyInstaller\\loader\\pyimod03_importers.pyc',
   'PYMODULE'),
  ('pyiboot01_bootstrap',
   'c:\\python\\lib\\site-packages\\PyInstaller\\loader\\pyiboot01_bootstrap.py',
   'PYSOURCE'),
  ('pyi_rth_multiprocessing',
   'C:\\Python\\Lib\\site-packages\\PyInstaller\\hooks\\rthooks\\pyi_rth_multiprocessing.py',
   'PYSOURCE'),
  ('pyi_rth_certifi',
   'C:\\Python\\Lib\\site-packages\\_pyinstaller_hooks_contrib\\hooks\\rthooks\\pyi_rth_certifi.py',
   'PYSOURCE'),
  ('Auto_FBMP_Scrapelinkproduk',
   'F:\\tools\\Facebook '
   'marketplace\\auto-fb-mp-master\\Auto_FBMP_Scrapelinkproduk.py',
   'PYSOURCE'),
  ('python38.dll', 'c:\\python\\python38.dll', 'BINARY'),
  ('api-ms-win-crt-runtime-l1-1-0.dll',
   'C:\\Windows\\system32\\api-ms-win-crt-runtime-l1-1-0.dll',
   'BINARY'),
  ('VCRUNTIME140.dll', 'c:\\python\\VCRUNTIME140.dll', 'BINARY'),
  ('api-ms-win-crt-math-l1-1-0.dll',
   'C:\\Windows\\system32\\api-ms-win-crt-math-l1-1-0.dll',
   'BINARY'),
  ('api-ms-win-crt-locale-l1-1-0.dll',
   'C:\\Windows\\system32\\api-ms-win-crt-locale-l1-1-0.dll',
   'BINARY'),
  ('api-ms-win-crt-stdio-l1-1-0.dll',
   'C:\\Windows\\system32\\api-ms-win-crt-stdio-l1-1-0.dll',
   'BINARY'),
  ('api-ms-win-crt-heap-l1-1-0.dll',
   'C:\\Windows\\system32\\api-ms-win-crt-heap-l1-1-0.dll',
   'BINARY'),
  ('api-ms-win-crt-filesystem-l1-1-0.dll',
   'C:\\Windows\\system32\\api-ms-win-crt-filesystem-l1-1-0.dll',
   'BINARY'),
  ('api-ms-win-crt-process-l1-1-0.dll',
   'C:\\Windows\\system32\\api-ms-win-crt-process-l1-1-0.dll',
   'BINARY'),
  ('api-ms-win-crt-conio-l1-1-0.dll',
   'C:\\Windows\\system32\\api-ms-win-crt-conio-l1-1-0.dll',
   'BINARY'),
  ('api-ms-win-crt-convert-l1-1-0.dll',
   'C:\\Windows\\system32\\api-ms-win-crt-convert-l1-1-0.dll',
   'BINARY'),
  ('api-ms-win-crt-time-l1-1-0.dll',
   'C:\\Windows\\system32\\api-ms-win-crt-time-l1-1-0.dll',
   'BINARY'),
  ('api-ms-win-crt-environment-l1-1-0.dll',
   'C:\\Windows\\system32\\api-ms-win-crt-environment-l1-1-0.dll',
   'BINARY'),
  ('api-ms-win-crt-string-l1-1-0.dll',
   'C:\\Windows\\system32\\api-ms-win-crt-string-l1-1-0.dll',
   'BINARY'),
  ('ucrtbase.dll', 'C:\\Windows\\system32\\ucrtbase.dll', 'BINARY'),
  ('api-ms-win-core-synch-l1-2-0.dll',
   'C:\\Windows\\system32\\api-ms-win-core-synch-l1-2-0.dll',
   'BINARY'),
  ('api-ms-win-core-util-l1-1-0.dll',
   'C:\\Windows\\system32\\api-ms-win-core-util-l1-1-0.dll',
   'BINARY'),
  ('api-ms-win-core-libraryloader-l1-1-0.dll',
   'C:\\Windows\\system32\\api-ms-win-core-libraryloader-l1-1-0.dll',
   'BINARY'),
  ('api-ms-win-core-debug-l1-1-0.dll',
   'C:\\Windows\\system32\\api-ms-win-core-debug-l1-1-0.dll',
   'BINARY'),
  ('api-ms-win-core-memory-l1-1-0.dll',
   'C:\\Windows\\system32\\api-ms-win-core-memory-l1-1-0.dll',
   'BINARY'),
  ('api-ms-win-core-sysinfo-l1-1-0.dll',
   'C:\\Windows\\system32\\api-ms-win-core-sysinfo-l1-1-0.dll',
   'BINARY'),
  ('api-ms-win-core-localization-l1-2-0.dll',
   'C:\\Windows\\system32\\api-ms-win-core-localization-l1-2-0.dll',
   'BINARY'),
  ('api-ms-win-core-processthreads-l1-1-1.dll',
   'C:\\Windows\\system32\\api-ms-win-core-processthreads-l1-1-1.dll',
   'BINARY'),
  ('api-ms-win-core-file-l1-1-0.dll',
   'C:\\Windows\\system32\\api-ms-win-core-file-l1-1-0.dll',
   'BINARY'),
  ('api-ms-win-core-processenvironment-l1-1-0.dll',
   'C:\\Windows\\system32\\api-ms-win-core-processenvironment-l1-1-0.dll',
   'BINARY'),
  ('api-ms-win-core-handle-l1-1-0.dll',
   'C:\\Windows\\system32\\api-ms-win-core-handle-l1-1-0.dll',
   'BINARY'),
  ('api-ms-win-core-profile-l1-1-0.dll',
   'C:\\Windows\\system32\\api-ms-win-core-profile-l1-1-0.dll',
   'BINARY'),
  ('api-ms-win-core-file-l2-1-0.dll',
   'C:\\Windows\\system32\\api-ms-win-core-file-l2-1-0.dll',
   'BINARY'),
  ('api-ms-win-core-timezone-l1-1-0.dll',
   'C:\\Windows\\system32\\api-ms-win-core-timezone-l1-1-0.dll',
   'BINARY'),
  ('api-ms-win-core-heap-l1-1-0.dll',
   'C:\\Windows\\system32\\api-ms-win-core-heap-l1-1-0.dll',
   'BINARY'),
  ('api-ms-win-core-errorhandling-l1-1-0.dll',
   'C:\\Windows\\system32\\api-ms-win-core-errorhandling-l1-1-0.dll',
   'BINARY'),
  ('api-ms-win-core-string-l1-1-0.dll',
   'C:\\Windows\\system32\\api-ms-win-core-string-l1-1-0.dll',
   'BINARY'),
  ('api-ms-win-core-processthreads-l1-1-0.dll',
   'C:\\Windows\\system32\\api-ms-win-core-processthreads-l1-1-0.dll',
   'BINARY'),
  ('api-ms-win-core-console-l1-1-0.dll',
   'C:\\Windows\\system32\\api-ms-win-core-console-l1-1-0.dll',
   'BINARY'),
  ('api-ms-win-core-namedpipe-l1-1-0.dll',
   'C:\\Windows\\system32\\api-ms-win-core-namedpipe-l1-1-0.dll',
   'BINARY'),
  ('api-ms-win-core-interlocked-l1-1-0.dll',
   'C:\\Windows\\system32\\api-ms-win-core-interlocked-l1-1-0.dll',
   'BINARY'),
  ('api-ms-win-core-datetime-l1-1-0.dll',
   'C:\\Windows\\system32\\api-ms-win-core-datetime-l1-1-0.dll',
   'BINARY'),
  ('api-ms-win-core-synch-l1-1-0.dll',
   'C:\\Windows\\system32\\api-ms-win-core-synch-l1-1-0.dll',
   'BINARY'),
  ('api-ms-win-core-rtlsupport-l1-1-0.dll',
   'C:\\Windows\\system32\\api-ms-win-core-rtlsupport-l1-1-0.dll',
   'BINARY'),
  ('api-ms-win-core-file-l1-2-0.dll',
   'C:\\Windows\\system32\\api-ms-win-core-file-l1-2-0.dll',
   'BINARY'),
  ('_hashlib', 'c:\\python\\DLLs\\_hashlib.pyd', 'EXTENSION'),
  ('_lzma', 'c:\\python\\DLLs\\_lzma.pyd', 'EXTENSION'),
  ('_bz2', 'c:\\python\\DLLs\\_bz2.pyd', 'EXTENSION'),
  ('select', 'c:\\python\\DLLs\\select.pyd', 'EXTENSION'),
  ('_socket', 'c:\\python\\DLLs\\_socket.pyd', 'EXTENSION'),
  ('_ssl', 'c:\\python\\DLLs\\_ssl.pyd', 'EXTENSION'),
  ('_multiprocessing', 'c:\\python\\DLLs\\_multiprocessing.pyd', 'EXTENSION'),
  ('pyexpat', 'c:\\python\\DLLs\\pyexpat.pyd', 'EXTENSION'),
  ('_decimal', 'c:\\python\\DLLs\\_decimal.pyd', 'EXTENSION'),
  ('_ctypes', 'c:\\python\\DLLs\\_ctypes.pyd', 'EXTENSION'),
  ('_queue', 'c:\\python\\DLLs\\_queue.pyd', 'EXTENSION'),
  ('_overlapped', 'c:\\python\\DLLs\\_overlapped.pyd', 'EXTENSION'),
  ('_asyncio', 'c:\\python\\DLLs\\_asyncio.pyd', 'EXTENSION'),
  ('unicodedata', 'c:\\python\\DLLs\\unicodedata.pyd', 'EXTENSION'),
  ('win32wnet',
   'c:\\python\\lib\\site-packages\\win32\\win32wnet.pyd',
   'EXTENSION'),
  ('_sqlite3', 'c:\\python\\DLLs\\_sqlite3.pyd', 'EXTENSION'),
  ('libcrypto-1_1.dll', 'c:\\python\\DLLs\\libcrypto-1_1.dll', 'BINARY'),
  ('libssl-1_1.dll', 'c:\\python\\DLLs\\libssl-1_1.dll', 'BINARY'),
  ('api-ms-win-crt-utility-l1-1-0.dll',
   'C:\\Windows\\system32\\api-ms-win-crt-utility-l1-1-0.dll',
   'BINARY'),
  ('libffi-7.dll', 'c:\\python\\DLLs\\libffi-7.dll', 'BINARY'),
  ('pywintypes38.dll',
   'c:\\python\\Lib\\site-packages\\pywin32_system32\\pywintypes38.dll',
   'BINARY'),
  ('sqlite3.dll', 'c:\\python\\DLLs\\sqlite3.dll', 'BINARY'),
  ('base_library.zip',
   'F:\\tools\\Facebook '
   'marketplace\\auto-fb-mp-master\\build\\Auto_FBMP_Scrapelinkproduk\\base_library.zip',
   'DATA'),
  ('selenium\\webdriver\\firefox\\amd64\\x_ignore_nofocus.so',
   'c:\\python\\lib\\site-packages\\selenium\\webdriver\\firefox\\amd64\\x_ignore_nofocus.so',
   'DATA'),
  ('selenium\\webdriver\\remote\\isDisplayed.js',
   'c:\\python\\lib\\site-packages\\selenium\\webdriver\\remote\\isDisplayed.js',
   'DATA'),
  ('selenium\\webdriver\\remote\\getAttribute.js',
   'c:\\python\\lib\\site-packages\\selenium\\webdriver\\remote\\getAttribute.js',
   'DATA'),
  ('selenium\\webdriver\\firefox\\webdriver.xpi',
   'c:\\python\\lib\\site-packages\\selenium\\webdriver\\firefox\\webdriver.xpi',
   'DATA'),
  ('certifi\\cacert.pem',
   'c:\\python\\lib\\site-packages\\certifi\\cacert.pem',
   'DATA'),
  ('selenium\\webdriver\\firefox\\webdriver_prefs.json',
   'c:\\python\\lib\\site-packages\\selenium\\webdriver\\firefox\\webdriver_prefs.json',
   'DATA'),
  ('selenium\\webdriver\\firefox\\x86\\x_ignore_nofocus.so',
   'c:\\python\\lib\\site-packages\\selenium\\webdriver\\firefox\\x86\\x_ignore_nofocus.so',
   'DATA'),
  ('Auto_FBMP_Scrapelinkproduk.exe.manifest',
   'F:\\tools\\Facebook '
   'marketplace\\auto-fb-mp-master\\build\\Auto_FBMP_Scrapelinkproduk\\Auto_FBMP_Scrapelinkproduk.exe.manifest',
   'BINARY'),
  ('pyi-windows-manifest-filename Auto_FBMP_Scrapelinkproduk.exe.manifest',
   '',
   'OPTION')],
 [],
 False,
 False,
 1623712469,
 [('run.exe',
   'c:\\python\\lib\\site-packages\\PyInstaller\\bootloader\\Windows-32bit\\run.exe',
   'EXECUTABLE')])
