Akun FB 01	Claudia Audy	F:\FB_MP\Cookies FB\#ZX001.json	https://www.facebook.com/marketplace/item/785404728836358/	Lakban Coklat / Putih Murah Langsung Pabrik	kosong	0
Akun FB 01	Claudia Audy	F:\FB_MP\Cookies FB\#ZX001.json	https://www.facebook.com/marketplace/item/1625827387608209/	Lakban Coklat / Putih Murah Langsung Pabrik / Free Ongkir & COD	kosong	9
Akun FB 01	Claudia Audy	F:\FB_MP\Cookies FB\#ZX001.json	https://www.facebook.com/marketplace/item/1197318477363018/	Lakban Grosiran Untuk Online Shop	kosong	7
Akun FB 01	Claudia Audy	F:\FB_MP\Cookies FB\#ZX001.json	https://www.facebook.com/marketplace/item/326844568881202/	Tas Selempang Pria Original / Slingbag / Handbag bayar ditempat / COD	kosong	0
Akun FB 01	Claudia Audy	F:\FB_MP\Cookies FB\#ZX001.json	https://www.facebook.com/marketplace/item/1372753989791160/	Tas Selempang Pria dan Wanita Original / Slingbag / Handbag bisa bayar ditempat / COD	kosong	0
Akun FB 01	Claudia Audy	F:\FB_MP\Cookies FB\#ZX001.json	https://www.facebook.com/marketplace/item/4330707663654474/	Tas Selempang Pria Original / Slingbag / Handbag bayar ditempat / COD	kosong	0
Akun FB 01	Claudia Audy	F:\FB_MP\Cookies FB\#ZX001.json	https://www.facebook.com/marketplace/item/546474536365358/	Tas Selempang Original bisa bayar ditempat / COD	kosong	0
Akun FB 01	Claudia Audy	F:\FB_MP\Cookies FB\#ZX001.json	https://www.facebook.com/marketplace/item/503845217628842/	Tas Selempang Pria Original / Slingbag / Handbag bisa bayar ditempat / COD	kosong	0
Akun FB 01	Claudia Audy	F:\FB_MP\Cookies FB\#ZX001.json	https://www.facebook.com/marketplace/item/490842108805426/	Tas Selempang Original bisa bayar ditempat / COD bisa	kosong	1
Akun FB 01	Claudia Audy	F:\FB_MP\Cookies FB\#ZX001.json	https://www.facebook.com/marketplace/item/217263526893427/	Tas Selempang Pria dan Wanita Original / Slingbag / Handbag bisa bayar ditempat	kosong	8
Akun FB 01	Claudia Audy	F:\FB_MP\Cookies FB\#ZX001.json	https://www.facebook.com/marketplace/item/776907383008106/	Tas Selempang Wanita Original / Slingbag / Handbag bayar ditempat / COD	kosong	2
Akun FB 01	Claudia Audy	F:\FB_MP\Cookies FB\#ZX001.json	https://www.facebook.com/marketplace/item/991101221724893/	Tas Selempang Pria dan Wanita Original bisa bayar ditempat / COD bisa GROSIR	kosong	0
Akun FB 01	Claudia Audy	F:\FB_MP\Cookies FB\#ZX001.json	https://www.facebook.com/marketplace/item/309151407552216/	Tas Selempang Wanita Original bisa bayar ditempat / COD	kosong	0
Akun FB 01	Claudia Audy	F:\FB_MP\Cookies FB\#ZX001.json	https://www.facebook.com/marketplace/item/520709709370488/	Tas Selempang Wanita Original / Slingbag / Handbag bayar ditempat / COD	kosong	1
Akun FB 01	Claudia Audy	F:\FB_MP\Cookies FB\#ZX001.json	https://www.facebook.com/marketplace/item/152352633614284/	Tas Selempang Pria Original bisa bayar ditempat / COD bisa GROSIR	kosong	0
Akun FB 01	Claudia Audy	F:\FB_MP\Cookies FB\#ZX001.json	https://www.facebook.com/marketplace/item/392042148775315/	PROMO FREE ONGKIR Tas Selempang Pria dan Wanita Original bisa bayar ditempat / COD	kosong	23
Akun FB 01	Claudia Audy	F:\FB_MP\Cookies FB\#ZX001.json	https://www.facebook.com/marketplace/item/498327154818357/	PROMO CUCI GUDANG Tas Selempang Pria dan Wanita Original / Slingbag / Handbag bayar ditempat / COD.	kosong	15
Akun FB 01	Claudia Audy	F:\FB_MP\Cookies FB\#ZX001.json	https://www.facebook.com/marketplace/item/383589946425770/	PROMO Tas Selempang Pria dan Wanita Original bisa bayar ditempat / COD bisa GROSIR	kosong	2
Akun FB 01	Claudia Audy	F:\FB_MP\Cookies FB\#ZX001.json	https://www.facebook.com/marketplace/item/301631895040004/	PROMO Tas Selempang Pria dan Wanita Original bisa bayar ditempat / COD bisa GROSIR	kosong	5
Akun FB 01	Claudia Audy	F:\FB_MP\Cookies FB\#ZX001.json	https://www.facebook.com/marketplace/item/213517087272491/	GROSIR Tas Selempang Pria dan Wanita Original / Slingbag / Handbag bisa bayar ditempat / COD	kosong	4
Akun FB 01	Claudia Audy	F:\FB_MP\Cookies FB\#ZX001.json	https://www.facebook.com/marketplace/item/976333283192913/	GROSIR Tas Selempang Pria dan Wanita Original bisa bayar ditempat / COD bisa	kosong	2
Akun FB 01	Claudia Audy	F:\FB_MP\Cookies FB\#ZX001.json	https://www.facebook.com/marketplace/item/138716744898062/	PROMO CUCI GUDANG Tas Selempang Pria dan Wanita Original bisa bayar ditempat / COD bisa GROSIR	kosong	6
Akun FB 01	Claudia Audy	F:\FB_MP\Cookies FB\#ZX001.json	https://www.facebook.com/marketplace/item/234527184771272/	PROMO CUCI GUDANG Tas Selempang Pria dan Wanita Original / Slingbag / Handbag bayar ditempat / COD	kosong	0
Akun FB 01	Claudia Audy	F:\FB_MP\Cookies FB\#ZX001.json	https://www.facebook.com/marketplace/item/235395727994892/	HARGA PROMO Tas Selempang Pria dan Wanita Original / Slingbag / Handbag bisa bayar ditempat / COD	kosong	7
Akun FB 01	Claudia Audy	F:\FB_MP\Cookies FB\#ZX001.json	https://www.facebook.com/marketplace/item/3943461259094462/	PROMO FREE ONGKIR Tas Selempang Pria dan Wanita Original bisa bayar ditempat / COD	kosong	23
Akun FB 01	Claudia Audy	F:\FB_MP\Cookies FB\#ZX001.json	https://www.facebook.com/marketplace/item/512186509923961/	PROMO FREE ONGKIR Tas Selempang Pria dan Wanita Original bisa bayar ditempat / COD	kosong	2
Akun FB 01	Claudia Audy	F:\FB_MP\Cookies FB\#ZX001.json	https://www.facebook.com/marketplace/item/489023085653533/	PROMO CUCI GUDANG Tas Selempang Pria dan Wanita Original / Slingbag / Handbag bayar ditempat / COD	kosong	1
Akun FB 01	Claudia Audy	F:\FB_MP\Cookies FB\#ZX001.json	https://www.facebook.com/marketplace/item/176594814398867/	GROSIR Tas Selempang Pria dan Wanita Original / Slingbag / Handbag bisa bayar ditempat / COD	kosong	2
Akun FB 01	Claudia Audy	F:\FB_MP\Cookies FB\#ZX001.json	https://www.facebook.com/marketplace/item/752717328733303/	PROMO Tas Selempang Pria dan Wanita Original bisa bayar ditempat / COD bisa GROSIR	kosong	0
Akun FB 01	Claudia Audy	F:\FB_MP\Cookies FB\#ZX001.json	https://www.facebook.com/marketplace/item/326740068966140/	PROMO Tas Selempang Pria dan Wanita Original bisa bayar ditempat / COD bisa GROSIR	kosong	5
Akun FB 01	Claudia Audy	F:\FB_MP\Cookies FB\#ZX001.json	https://www.facebook.com/marketplace/item/527168728643295/	HARGA PROMO Tas Selempang Pria dan Wanita Original / Slingbag / Handbag bisa bayar ditempat / COD	kosong	1
Akun FB 01	Claudia Audy	F:\FB_MP\Cookies FB\#ZX001.json	https://www.facebook.com/marketplace/item/869516903635359/	GROSIR Tas Selempang Pria dan Wanita Original bisa bayar ditempat / COD bisa	kosong	0
Akun FB 01	Claudia Audy	F:\FB_MP\Cookies FB\#ZX001.json	https://www.facebook.com/marketplace/item/845914552972512/	PROMO FREE ONGKIR Tas Selempang Pria dan Wanita Original bisa bayar ditempat / COD	kosong	0
Akun FB 01	Claudia Audy	F:\FB_MP\Cookies FB\#ZX001.json	https://www.facebook.com/marketplace/item/308580954087752/	PROMO CUCI GUDANG Tas Selempang Pria dan Wanita Original / Slingbag / Handbag bayar ditempat / COD	kosong	0
Akun FB 01	Claudia Audy	F:\FB_MP\Cookies FB\#ZX001.json	https://www.facebook.com/marketplace/item/960621781359944/	PROMO Tas Selempang Pria dan Wanita Original bisa bayar ditempat / COD bisa GROSIR	kosong	2
Akun FB 01	Claudia Audy	F:\FB_MP\Cookies FB\#ZX001.json	https://www.facebook.com/marketplace/item/2950547381880813/	CUCI GUDANG Celana Sirwal Cargo Pria Bayar Ditempat	kosong	3
Akun FB 01	Claudia Audy	F:\FB_MP\Cookies FB\#ZX001.json	https://www.facebook.com/marketplace/item/315373343538149/	PROMO CUCI GUDANG Celana Sirwal Gaul Bayar Ditempat.	kosong	12
Akun FB 01	Claudia Audy	F:\FB_MP\Cookies FB\#ZX001.json	https://www.facebook.com/marketplace/item/230786321857190/	CUCI GUDANG Celana Kulot Pria COD	kosong	4
Akun FB 01	Claudia Audy	F:\FB_MP\Cookies FB\#ZX001.json	https://www.facebook.com/marketplace/item/319945019703958/	PROMO Celana Kolor [COD]	kosong	7
Akun FB 01	Claudia Audy	F:\FB_MP\Cookies FB\#ZX001.json	https://www.facebook.com/marketplace/item/2955743098044099/	PROMO Celana Sirwal Gunung [COD]	kosong	11
Akun FB 01	Claudia Audy	F:\FB_MP\Cookies FB\#ZX001.json	https://www.facebook.com/marketplace/item/502563094198109/	CUCI GUDANG Celana Sirwal Army [Bayar Ditempat].	kosong	60
Akun FB 01	Claudia Audy	F:\FB_MP\Cookies FB\#ZX001.json	https://www.facebook.com/marketplace/item/1198447310614242/	PROMO CUCI GUDANG Celana Sirwal Cingkrang C.O.D	kosong	0
Akun FB 01	Claudia Audy	F:\FB_MP\Cookies FB\#ZX001.json	https://www.facebook.com/marketplace/item/896798254202814/	PROMO Celana Sirwal Murah Bisa COD.	kosong	68
Akun FB 01	Claudia Audy	F:\FB_MP\Cookies FB\#ZX001.json	https://www.facebook.com/marketplace/item/310510274074216/	PROMO Celana Sirwal Joger COD	kosong	9
Akun FB 01	Claudia Audy	F:\FB_MP\Cookies FB\#ZX001.json	https://www.facebook.com/marketplace/item/1391695601200756/	CUCI GUDANG Celana Sirwal as Sunnah C.O.D	kosong	1
Akun FB 01	Claudia Audy	F:\FB_MP\Cookies FB\#ZX001.json	https://www.facebook.com/marketplace/item/320778196192866/	KAOS PRIA BATIK CAP	kosong	1
Akun FB 01	Claudia Audy	F:\FB_MP\Cookies FB\#ZX001.json	https://www.facebook.com/marketplace/item/936185170283340/	KAOS BATIK CAP	kosong	0
Akun FB 01	Claudia Audy	F:\FB_MP\Cookies FB\#ZX001.json	https://www.facebook.com/marketplace/item/178362417622546/	SETELAN DASTER JUMBO	kosong	4
Akun FB 01	Claudia Audy	F:\FB_MP\Cookies FB\#ZX001.json	https://www.facebook.com/marketplace/item/4020225784728848/	SETELAN BAJU WANITA JUMBO	kosong	0
Akun FB 01	Claudia Audy	F:\FB_MP\Cookies FB\#ZX001.json	https://www.facebook.com/marketplace/item/179175794016259/	SETELAN BABYDOLL JUMBO	kosong	0
Akun FB 01	Claudia Audy	F:\FB_MP\Cookies FB\#ZX001.json	https://www.facebook.com/marketplace/item/2946951998913810/	SETELAN BAJU TIDUR JUMBO	kosong	0
Akun FB 01	Claudia Audy	F:\FB_MP\Cookies FB\#ZX001.json	https://www.facebook.com/marketplace/item/2569058729907428/	SETELAN KULOT JUMBO	kosong	10
Akun FB 01	Claudia Audy	F:\FB_MP\Cookies FB\#ZX001.json	https://www.facebook.com/marketplace/item/548523639492162/	Legging koran	kosong	1
Akun FB 01	Claudia Audy	F:\FB_MP\Cookies FB\#ZX001.json	https://www.facebook.com/marketplace/item/375803697194129/	Celana Sirwal Cargo COD	kosong	14
Akun FB 01	Claudia Audy	F:\FB_MP\Cookies FB\#ZX001.json	https://www.facebook.com/marketplace/item/1625827387608209/	Lakban Coklat / Putih Murah Langsung Pabrik / Free Ongkir & COD	kosong	10
Akun FB 01	Claudia Audy	F:\FB_MP\Cookies FB\#ZX001.json	https://www.facebook.com/marketplace/item/217263526893427/	Tas Selempang Pria dan Wanita Original / Slingbag / Handbag bisa bayar ditempat	kosong	8
Akun FB 01	Claudia Audy	F:\FB_MP\Cookies FB\#ZX001.json	https://www.facebook.com/marketplace/item/392042148775315/	PROMO FREE ONGKIR Tas Selempang Pria dan Wanita Original bisa bayar ditempat / COD	kosong	23
Akun FB 01	Claudia Audy	F:\FB_MP\Cookies FB\#ZX001.json	https://www.facebook.com/marketplace/item/138716744898062/	PROMO CUCI GUDANG Tas Selempang Pria dan Wanita Original bisa bayar ditempat / COD bisa GROSIR	kosong	6
Akun FB 01	Claudia Audy	F:\FB_MP\Cookies FB\#ZX001.json	https://www.facebook.com/marketplace/item/499122621304801/	[FREE ONGKIR] Madu Murni Asli	Magetan	2
Akun FB 01	Claudia Audy	F:\FB_MP\Cookies FB\#ZX001.json	https://www.facebook.com/marketplace/item/181781530476578/	Madu Asli Murni Ukuran 1 Kg	Gresik	0
Akun FB 01	Claudia Audy	F:\FB_MP\Cookies FB\#ZX001.json	https://www.facebook.com/marketplace/item/839780070310020/	Madu Asli 1 Liter	Lumajang	0
Akun FB 01	Claudia Audy	F:\FB_MP\Cookies FB\#ZX001.json	https://www.facebook.com/marketplace/item/1044734253047922/	Madu Asli 1 Liter {Free Ongkir}	Bangkalan	0
Akun FB 01	Claudia Audy	F:\FB_MP\Cookies FB\#ZX001.json	https://www.facebook.com/marketplace/item/3854541214668959/	[FREE ONGKIR] Madu Asli Murni	Lamongan	0
Akun FB 01	Claudia Audy	F:\FB_MP\Cookies FB\#ZX001.json	https://www.facebook.com/marketplace/item/261265319105765/	Madu Asli Murni {Free Ongkir}	Bojonegoro	3
Akun FB 01	Claudia Audy	F:\FB_MP\Cookies FB\#ZX001.json	https://www.facebook.com/marketplace/item/331975291797194/	Madu Murni 1 Kg {Free Ongkir}	Batu	1
Akun FB 01	Claudia Audy	F:\FB_MP\Cookies FB\#ZX001.json	https://www.facebook.com/marketplace/item/2870071783260285/	Madu Murni 1 Kg	Situbondo	0
Akun FB 01	Claudia Audy	F:\FB_MP\Cookies FB\#ZX001.json	https://www.facebook.com/marketplace/item/2553807134925812/	[FREE ONGKIR] Madu Asli 1 Kg	Tuban	1
Akun FB 01	Claudia Audy	F:\FB_MP\Cookies FB\#ZX001.json	https://www.facebook.com/marketplace/item/960450207829332/	[FREE ONGKIR] Madu Murni 1 Kg	Ponorogo	1
Akun FB 01	Claudia Audy	F:\FB_MP\Cookies FB\#ZX001.json	https://www.facebook.com/marketplace/item/2130658397075881/	Madu Asli Murni	Tulungagung	3
Akun FB 01	Claudia Audy	F:\FB_MP\Cookies FB\#ZX001.json	https://www.facebook.com/marketplace/item/3199414266952738/	[FREE ONGKIR] Madu Murni 1 Kg	Surabaya	3
Akun FB 01	Claudia Audy	F:\FB_MP\Cookies FB\#ZX001.json	https://www.facebook.com/marketplace/item/878205872775652/	Madu Asli 1 Kg	Trenggalek	0
Akun FB 01	Claudia Audy	F:\FB_MP\Cookies FB\#ZX001.json	https://www.facebook.com/marketplace/item/914963129361523/	Madu Murni Asli {Free Ongkir}	Nganjuk	3
Akun FB 01	Claudia Audy	F:\FB_MP\Cookies FB\#ZX001.json	https://www.facebook.com/marketplace/item/3017456315150523/	Madu Asli 1 Kg {Free Ongkir}	Sidoarjo	0
Akun FB 01	Claudia Audy	F:\FB_MP\Cookies FB\#ZX001.json	https://www.facebook.com/marketplace/item/930347570861391/	Madu Murni Asli	Jombang	0
Akun FB 01	Claudia Audy	F:\FB_MP\Cookies FB\#ZX001.json	https://www.facebook.com/marketplace/item/818511809082209/	Madu Murni 1 Kg {Free Ongkir}	Bondowoso	0
Akun FB 01	Claudia Audy	F:\FB_MP\Cookies FB\#ZX001.json	https://www.facebook.com/marketplace/item/380224446868447/	Lakban Murah Langsung Pabrik	Bojonegoro	12
Akun FB 01	Claudia Audy	F:\FB_MP\Cookies FB\#ZX001.json	https://www.facebook.com/marketplace/item/953413848752604/	Lakban Grosiran Untuk Online Shop	Bekasi Kota	10
Akun FB 01	Claudia Audy	F:\FB_MP\Cookies FB\#ZX001.json	https://www.facebook.com/marketplace/item/520698555737843/	Lakban Grosiran Untuk Online Shop	Pasuruan Kabupaten	22
Akun FB 01	Claudia Audy	F:\FB_MP\Cookies FB\#ZX001.json	https://www.facebook.com/marketplace/item/494621438278648/	Lakban Coklat / Putih Murah Langsung Pabrik	Jakarta Pusat	10
Akun FB 01	Claudia Audy	F:\FB_MP\Cookies FB\#ZX001.json	https://www.facebook.com/marketplace/item/1625827387608209/	Lakban Coklat / Putih Murah Langsung Pabrik / Free Ongkir & COD	Jakarta Timur	10
Akun FB 01	Claudia Audy	F:\FB_MP\Cookies FB\#ZX001.json	https://www.facebook.com/marketplace/item/217263526893427/	Tas Selempang Pria dan Wanita Original / Slingbag / Handbag bisa bayar ditempat	Nganjuk	10
Akun FB 01	Claudia Audy	F:\FB_MP\Cookies FB\#ZX001.json	https://www.facebook.com/marketplace/item/3943461259094462/	PROMO FREE ONGKIR Tas Selempang Pria dan Wanita Original bisa bayar ditempat / COD	Tulungagung	2
Akun FB 01	Claudia Audy	F:\FB_MP\Cookies FB\#ZX001.json	https://www.facebook.com/marketplace/item/2955743098044099/	PROMO Celana Sirwal Gunung [COD].	Cilegon	6
Akun FB 01	Claudia Audy	F:\FB_MP\Cookies FB\#ZX001.json	https://www.facebook.com/marketplace/item/502563094198109/	CUCI GUDANG Celana Sirwal Army [Bayar Ditempat]	Kediri Kota	31
Akun FB 01	Claudia Audy	F:\FB_MP\Cookies FB\#ZX001.json	https://www.facebook.com/marketplace/item/896798254202814/	PROMO Celana Sirwal Murah Bisa COD	Madiun Kota	11
Akun FB 01	Claudia Audy	F:\FB_MP\Cookies FB\#ZX001.json	https://www.facebook.com/marketplace/item/375803697194129/	Celana Sirwal Cargo COD	Kediri Kota	21
