(['D:\\python\\fb_mp\\auto-fb-mp-master\\Youtube Video Scraper.py'],
 ['D:\\python\\fb_mp\\auto-fb-mp-master',
  'D:\\python\\fb_mp\\auto-fb-mp-master'],
 ['codecs'],
 ['c:\\users\\acer\\appdata\\local\\programs\\python\\python38\\lib\\site-packages\\_pyinstaller_hooks_contrib\\hooks\\stdhooks',
  'c:\\users\\acer\\appdata\\local\\programs\\python\\python38\\lib\\site-packages\\_pyinstaller_hooks_contrib\\hooks\\stdhooks\\__pycache__',
  'c:\\users\\acer\\appdata\\local\\programs\\python\\python38\\lib\\site-packages\\_pyinstaller_hooks_contrib\\hooks\\rthooks',
  'c:\\users\\acer\\appdata\\local\\programs\\python\\python38\\lib\\site-packages\\_pyinstaller_hooks_contrib\\hooks\\rthooks\\__pycache__',
  'c:\\users\\acer\\appdata\\local\\programs\\python\\python38\\lib\\site-packages\\_pyinstaller_hooks_contrib\\hooks'],
 [],
 [],
 False,
 False,
 False,
 '3.8.5 (tags/v3.8.5:580fbb0, Jul 20 2020, 15:57:54) [MSC v.1924 64 bit '
 '(AMD64)]',
 [('pyi_rth_multiprocessing',
   'C:\\Users\\Acer\\AppData\\Local\\Programs\\Python\\Python38\\Lib\\site-packages\\PyInstaller\\hooks\\rthooks\\pyi_rth_multiprocessing.py',
   'PYSOURCE'),
  ('Youtube Video Scraper',
   'D:\\python\\fb_mp\\auto-fb-mp-master\\Youtube Video Scraper.py',
   'PYSOURCE')],
 [('multiprocessing.popen_spawn_posix',
   'c:\\users\\acer\\appdata\\local\\programs\\python\\python38\\lib\\multiprocessing\\popen_spawn_posix.py',
   'PYMODULE'),
  ('multiprocessing.resource_tracker',
   'c:\\users\\acer\\appdata\\local\\programs\\python\\python38\\lib\\multiprocessing\\resource_tracker.py',
   'PYMODULE'),
  ('threading',
   'c:\\users\\acer\\appdata\\local\\programs\\python\\python38\\lib\\threading.py',
   'PYMODULE'),
  ('_threading_local',
   'c:\\users\\acer\\appdata\\local\\programs\\python\\python38\\lib\\_threading_local.py',
   'PYMODULE'),
  ('contextlib',
   'c:\\users\\acer\\appdata\\local\\programs\\python\\python38\\lib\\contextlib.py',
   'PYMODULE'),
  ('signal',
   'c:\\users\\acer\\appdata\\local\\programs\\python\\python38\\lib\\signal.py',
   'PYMODULE'),
  ('multiprocessing.util',
   'c:\\users\\acer\\appdata\\local\\programs\\python\\python38\\lib\\multiprocessing\\util.py',
   'PYMODULE'),
  ('multiprocessing.forkserver',
   'c:\\users\\acer\\appdata\\local\\programs\\python\\python38\\lib\\multiprocessing\\forkserver.py',
   'PYMODULE'),
  ('multiprocessing.connection',
   'c:\\users\\acer\\appdata\\local\\programs\\python\\python38\\lib\\multiprocessing\\connection.py',
   'PYMODULE'),
  ('multiprocessing.resource_sharer',
   'c:\\users\\acer\\appdata\\local\\programs\\python\\python38\\lib\\multiprocessing\\resource_sharer.py',
   'PYMODULE'),
  ('xmlrpc.client',
   'c:\\users\\acer\\appdata\\local\\programs\\python\\python38\\lib\\xmlrpc\\client.py',
   'PYMODULE'),
  ('xmlrpc',
   'c:\\users\\acer\\appdata\\local\\programs\\python\\python38\\lib\\xmlrpc\\__init__.py',
   'PYMODULE'),
  ('gzip',
   'c:\\users\\acer\\appdata\\local\\programs\\python\\python38\\lib\\gzip.py',
   'PYMODULE'),
  ('argparse',
   'c:\\users\\acer\\appdata\\local\\programs\\python\\python38\\lib\\argparse.py',
   'PYMODULE'),
  ('textwrap',
   'c:\\users\\acer\\appdata\\local\\programs\\python\\python38\\lib\\textwrap.py',
   'PYMODULE'),
  ('copy',
   'c:\\users\\acer\\appdata\\local\\programs\\python\\python38\\lib\\copy.py',
   'PYMODULE'),
  ('gettext',
   'c:\\users\\acer\\appdata\\local\\programs\\python\\python38\\lib\\gettext.py',
   'PYMODULE'),
  ('_compression',
   'c:\\users\\acer\\appdata\\local\\programs\\python\\python38\\lib\\_compression.py',
   'PYMODULE'),
  ('xml.parsers.expat',
   'c:\\users\\acer\\appdata\\local\\programs\\python\\python38\\lib\\xml\\parsers\\expat.py',
   'PYMODULE'),
  ('xml.parsers',
   'c:\\users\\acer\\appdata\\local\\programs\\python\\python38\\lib\\xml\\parsers\\__init__.py',
   'PYMODULE'),
  ('xml',
   'c:\\users\\acer\\appdata\\local\\programs\\python\\python38\\lib\\xml\\__init__.py',
   'PYMODULE'),
  ('xml.sax.expatreader',
   'c:\\users\\acer\\appdata\\local\\programs\\python\\python38\\lib\\xml\\sax\\expatreader.py',
   'PYMODULE'),
  ('xml.sax.saxutils',
   'c:\\users\\acer\\appdata\\local\\programs\\python\\python38\\lib\\xml\\sax\\saxutils.py',
   'PYMODULE'),
  ('urllib.request',
   'c:\\users\\acer\\appdata\\local\\programs\\python\\python38\\lib\\urllib\\request.py',
   'PYMODULE'),
  ('fnmatch',
   'c:\\users\\acer\\appdata\\local\\programs\\python\\python38\\lib\\fnmatch.py',
   'PYMODULE'),
  ('getpass',
   'c:\\users\\acer\\appdata\\local\\programs\\python\\python38\\lib\\getpass.py',
   'PYMODULE'),
  ('nturl2path',
   'c:\\users\\acer\\appdata\\local\\programs\\python\\python38\\lib\\nturl2path.py',
   'PYMODULE'),
  ('ftplib',
   'c:\\users\\acer\\appdata\\local\\programs\\python\\python38\\lib\\ftplib.py',
   'PYMODULE'),
  ('netrc',
   'c:\\users\\acer\\appdata\\local\\programs\\python\\python38\\lib\\netrc.py',
   'PYMODULE'),
  ('stat',
   'c:\\users\\acer\\appdata\\local\\programs\\python\\python38\\lib\\stat.py',
   'PYMODULE'),
  ('shlex',
   'c:\\users\\acer\\appdata\\local\\programs\\python\\python38\\lib\\shlex.py',
   'PYMODULE'),
  ('mimetypes',
   'c:\\users\\acer\\appdata\\local\\programs\\python\\python38\\lib\\mimetypes.py',
   'PYMODULE'),
  ('getopt',
   'c:\\users\\acer\\appdata\\local\\programs\\python\\python38\\lib\\getopt.py',
   'PYMODULE'),
  ('email.utils',
   'c:\\users\\acer\\appdata\\local\\programs\\python\\python38\\lib\\email\\utils.py',
   'PYMODULE'),
  ('email.charset',
   'c:\\users\\acer\\appdata\\local\\programs\\python\\python38\\lib\\email\\charset.py',
   'PYMODULE'),
  ('email.encoders',
   'c:\\users\\acer\\appdata\\local\\programs\\python\\python38\\lib\\email\\encoders.py',
   'PYMODULE'),
  ('quopri',
   'c:\\users\\acer\\appdata\\local\\programs\\python\\python38\\lib\\quopri.py',
   'PYMODULE'),
  ('email.errors',
   'c:\\users\\acer\\appdata\\local\\programs\\python\\python38\\lib\\email\\errors.py',
   'PYMODULE'),
  ('email.quoprimime',
   'c:\\users\\acer\\appdata\\local\\programs\\python\\python38\\lib\\email\\quoprimime.py',
   'PYMODULE'),
  ('email.base64mime',
   'c:\\users\\acer\\appdata\\local\\programs\\python\\python38\\lib\\email\\base64mime.py',
   'PYMODULE'),
  ('email._parseaddr',
   'c:\\users\\acer\\appdata\\local\\programs\\python\\python38\\lib\\email\\_parseaddr.py',
   'PYMODULE'),
  ('calendar',
   'c:\\users\\acer\\appdata\\local\\programs\\python\\python38\\lib\\calendar.py',
   'PYMODULE'),
  ('random',
   'c:\\users\\acer\\appdata\\local\\programs\\python\\python38\\lib\\random.py',
   'PYMODULE'),
  ('http.cookiejar',
   'c:\\users\\acer\\appdata\\local\\programs\\python\\python38\\lib\\http\\cookiejar.py',
   'PYMODULE'),
  ('http',
   'c:\\users\\acer\\appdata\\local\\programs\\python\\python38\\lib\\http\\__init__.py',
   'PYMODULE'),
  ('urllib',
   'c:\\users\\acer\\appdata\\local\\programs\\python\\python38\\lib\\urllib\\__init__.py',
   'PYMODULE'),
  ('ssl',
   'c:\\users\\acer\\appdata\\local\\programs\\python\\python38\\lib\\ssl.py',
   'PYMODULE'),
  ('urllib.response',
   'c:\\users\\acer\\appdata\\local\\programs\\python\\python38\\lib\\urllib\\response.py',
   'PYMODULE'),
  ('urllib.error',
   'c:\\users\\acer\\appdata\\local\\programs\\python\\python38\\lib\\urllib\\error.py',
   'PYMODULE'),
  ('string',
   'c:\\users\\acer\\appdata\\local\\programs\\python\\python38\\lib\\string.py',
   'PYMODULE'),
  ('posixpath',
   'c:\\users\\acer\\appdata\\local\\programs\\python\\python38\\lib\\posixpath.py',
   'PYMODULE'),
  ('genericpath',
   'c:\\users\\acer\\appdata\\local\\programs\\python\\python38\\lib\\genericpath.py',
   'PYMODULE'),
  ('hashlib',
   'c:\\users\\acer\\appdata\\local\\programs\\python\\python38\\lib\\hashlib.py',
   'PYMODULE'),
  ('email',
   'c:\\users\\acer\\appdata\\local\\programs\\python\\python38\\lib\\email\\__init__.py',
   'PYMODULE'),
  ('email.parser',
   'c:\\users\\acer\\appdata\\local\\programs\\python\\python38\\lib\\email\\parser.py',
   'PYMODULE'),
  ('email._policybase',
   'c:\\users\\acer\\appdata\\local\\programs\\python\\python38\\lib\\email\\_policybase.py',
   'PYMODULE'),
  ('email.feedparser',
   'c:\\users\\acer\\appdata\\local\\programs\\python\\python38\\lib\\email\\feedparser.py',
   'PYMODULE'),
  ('email.message',
   'c:\\users\\acer\\appdata\\local\\programs\\python\\python38\\lib\\email\\message.py',
   'PYMODULE'),
  ('email.policy',
   'c:\\users\\acer\\appdata\\local\\programs\\python\\python38\\lib\\email\\policy.py',
   'PYMODULE'),
  ('email.contentmanager',
   'c:\\users\\acer\\appdata\\local\\programs\\python\\python38\\lib\\email\\contentmanager.py',
   'PYMODULE'),
  ('email.headerregistry',
   'c:\\users\\acer\\appdata\\local\\programs\\python\\python38\\lib\\email\\headerregistry.py',
   'PYMODULE'),
  ('email.iterators',
   'c:\\users\\acer\\appdata\\local\\programs\\python\\python38\\lib\\email\\iterators.py',
   'PYMODULE'),
  ('email.generator',
   'c:\\users\\acer\\appdata\\local\\programs\\python\\python38\\lib\\email\\generator.py',
   'PYMODULE'),
  ('email._encoded_words',
   'c:\\users\\acer\\appdata\\local\\programs\\python\\python38\\lib\\email\\_encoded_words.py',
   'PYMODULE'),
  ('uu',
   'c:\\users\\acer\\appdata\\local\\programs\\python\\python38\\lib\\uu.py',
   'PYMODULE'),
  ('optparse',
   'c:\\users\\acer\\appdata\\local\\programs\\python\\python38\\lib\\optparse.py',
   'PYMODULE'),
  ('email._header_value_parser',
   'c:\\users\\acer\\appdata\\local\\programs\\python\\python38\\lib\\email\\_header_value_parser.py',
   'PYMODULE'),
  ('email.header',
   'c:\\users\\acer\\appdata\\local\\programs\\python\\python38\\lib\\email\\header.py',
   'PYMODULE'),
  ('bisect',
   'c:\\users\\acer\\appdata\\local\\programs\\python\\python38\\lib\\bisect.py',
   'PYMODULE'),
  ('xml.sax',
   'c:\\users\\acer\\appdata\\local\\programs\\python\\python38\\lib\\xml\\sax\\__init__.py',
   'PYMODULE'),
  ('xml.sax.handler',
   'c:\\users\\acer\\appdata\\local\\programs\\python\\python38\\lib\\xml\\sax\\handler.py',
   'PYMODULE'),
  ('xml.sax._exceptions',
   'c:\\users\\acer\\appdata\\local\\programs\\python\\python38\\lib\\xml\\sax\\_exceptions.py',
   'PYMODULE'),
  ('xml.sax.xmlreader',
   'c:\\users\\acer\\appdata\\local\\programs\\python\\python38\\lib\\xml\\sax\\xmlreader.py',
   'PYMODULE'),
  ('urllib.parse',
   'c:\\users\\acer\\appdata\\local\\programs\\python\\python38\\lib\\urllib\\parse.py',
   'PYMODULE'),
  ('http.client',
   'c:\\users\\acer\\appdata\\local\\programs\\python\\python38\\lib\\http\\client.py',
   'PYMODULE'),
  ('decimal',
   'c:\\users\\acer\\appdata\\local\\programs\\python\\python38\\lib\\decimal.py',
   'PYMODULE'),
  ('_pydecimal',
   'c:\\users\\acer\\appdata\\local\\programs\\python\\python38\\lib\\_pydecimal.py',
   'PYMODULE'),
  ('contextvars',
   'c:\\users\\acer\\appdata\\local\\programs\\python\\python38\\lib\\contextvars.py',
   'PYMODULE'),
  ('numbers',
   'c:\\users\\acer\\appdata\\local\\programs\\python\\python38\\lib\\numbers.py',
   'PYMODULE'),
  ('base64',
   'c:\\users\\acer\\appdata\\local\\programs\\python\\python38\\lib\\base64.py',
   'PYMODULE'),
  ('hmac',
   'c:\\users\\acer\\appdata\\local\\programs\\python\\python38\\lib\\hmac.py',
   'PYMODULE'),
  ('struct',
   'c:\\users\\acer\\appdata\\local\\programs\\python\\python38\\lib\\struct.py',
   'PYMODULE'),
  ('socket',
   'c:\\users\\acer\\appdata\\local\\programs\\python\\python38\\lib\\socket.py',
   'PYMODULE'),
  ('selectors',
   'c:\\users\\acer\\appdata\\local\\programs\\python\\python38\\lib\\selectors.py',
   'PYMODULE'),
  ('tempfile',
   'c:\\users\\acer\\appdata\\local\\programs\\python\\python38\\lib\\tempfile.py',
   'PYMODULE'),
  ('shutil',
   'c:\\users\\acer\\appdata\\local\\programs\\python\\python38\\lib\\shutil.py',
   'PYMODULE'),
  ('zipfile',
   'c:\\users\\acer\\appdata\\local\\programs\\python\\python38\\lib\\zipfile.py',
   'PYMODULE'),
  ('py_compile',
   'c:\\users\\acer\\appdata\\local\\programs\\python\\python38\\lib\\py_compile.py',
   'PYMODULE'),
  ('ntpath',
   'c:\\users\\acer\\appdata\\local\\programs\\python\\python38\\lib\\ntpath.py',
   'PYMODULE'),
  ('importlib.machinery',
   'c:\\users\\acer\\appdata\\local\\programs\\python\\python38\\lib\\importlib\\machinery.py',
   'PYMODULE'),
  ('importlib',
   'c:\\users\\acer\\appdata\\local\\programs\\python\\python38\\lib\\importlib\\__init__.py',
   'PYMODULE'),
  ('importlib._bootstrap',
   'c:\\users\\acer\\appdata\\local\\programs\\python\\python38\\lib\\importlib\\_bootstrap.py',
   'PYMODULE'),
  ('importlib._bootstrap_external',
   'c:\\users\\acer\\appdata\\local\\programs\\python\\python38\\lib\\importlib\\_bootstrap_external.py',
   'PYMODULE'),
  ('importlib.metadata',
   'c:\\users\\acer\\appdata\\local\\programs\\python\\python38\\lib\\importlib\\metadata.py',
   'PYMODULE'),
  ('importlib.abc',
   'c:\\users\\acer\\appdata\\local\\programs\\python\\python38\\lib\\importlib\\abc.py',
   'PYMODULE'),
  ('configparser',
   'c:\\users\\acer\\appdata\\local\\programs\\python\\python38\\lib\\configparser.py',
   'PYMODULE'),
  ('pathlib',
   'c:\\users\\acer\\appdata\\local\\programs\\python\\python38\\lib\\pathlib.py',
   'PYMODULE'),
  ('csv',
   'c:\\users\\acer\\appdata\\local\\programs\\python\\python38\\lib\\csv.py',
   'PYMODULE'),
  ('tokenize',
   'c:\\users\\acer\\appdata\\local\\programs\\python\\python38\\lib\\tokenize.py',
   'PYMODULE'),
  ('token',
   'c:\\users\\acer\\appdata\\local\\programs\\python\\python38\\lib\\token.py',
   'PYMODULE'),
  ('importlib.util',
   'c:\\users\\acer\\appdata\\local\\programs\\python\\python38\\lib\\importlib\\util.py',
   'PYMODULE'),
  ('tarfile',
   'c:\\users\\acer\\appdata\\local\\programs\\python\\python38\\lib\\tarfile.py',
   'PYMODULE'),
  ('lzma',
   'c:\\users\\acer\\appdata\\local\\programs\\python\\python38\\lib\\lzma.py',
   'PYMODULE'),
  ('bz2',
   'c:\\users\\acer\\appdata\\local\\programs\\python\\python38\\lib\\bz2.py',
   'PYMODULE'),
  ('logging',
   'c:\\users\\acer\\appdata\\local\\programs\\python\\python38\\lib\\logging\\__init__.py',
   'PYMODULE'),
  ('pickle',
   'c:\\users\\acer\\appdata\\local\\programs\\python\\python38\\lib\\pickle.py',
   'PYMODULE'),
  ('pprint',
   'c:\\users\\acer\\appdata\\local\\programs\\python\\python38\\lib\\pprint.py',
   'PYMODULE'),
  ('doctest',
   'c:\\users\\acer\\appdata\\local\\programs\\python\\python38\\lib\\doctest.py',
   'PYMODULE'),
  ('unittest',
   'c:\\users\\acer\\appdata\\local\\programs\\python\\python38\\lib\\unittest\\__init__.py',
   'PYMODULE'),
  ('unittest.signals',
   'c:\\users\\acer\\appdata\\local\\programs\\python\\python38\\lib\\unittest\\signals.py',
   'PYMODULE'),
  ('unittest.main',
   'c:\\users\\acer\\appdata\\local\\programs\\python\\python38\\lib\\unittest\\main.py',
   'PYMODULE'),
  ('unittest.runner',
   'c:\\users\\acer\\appdata\\local\\programs\\python\\python38\\lib\\unittest\\runner.py',
   'PYMODULE'),
  ('unittest.loader',
   'c:\\users\\acer\\appdata\\local\\programs\\python\\python38\\lib\\unittest\\loader.py',
   'PYMODULE'),
  ('unittest.suite',
   'c:\\users\\acer\\appdata\\local\\programs\\python\\python38\\lib\\unittest\\suite.py',
   'PYMODULE'),
  ('unittest.case',
   'c:\\users\\acer\\appdata\\local\\programs\\python\\python38\\lib\\unittest\\case.py',
   'PYMODULE'),
  ('unittest.async_case',
   'c:\\users\\acer\\appdata\\local\\programs\\python\\python38\\lib\\unittest\\async_case.py',
   'PYMODULE'),
  ('asyncio',
   'c:\\users\\acer\\appdata\\local\\programs\\python\\python38\\lib\\asyncio\\__init__.py',
   'PYMODULE'),
  ('asyncio.unix_events',
   'c:\\users\\acer\\appdata\\local\\programs\\python\\python38\\lib\\asyncio\\unix_events.py',
   'PYMODULE'),
  ('asyncio.log',
   'c:\\users\\acer\\appdata\\local\\programs\\python\\python38\\lib\\asyncio\\log.py',
   'PYMODULE'),
  ('asyncio.windows_events',
   'c:\\users\\acer\\appdata\\local\\programs\\python\\python38\\lib\\asyncio\\windows_events.py',
   'PYMODULE'),
  ('asyncio.windows_utils',
   'c:\\users\\acer\\appdata\\local\\programs\\python\\python38\\lib\\asyncio\\windows_utils.py',
   'PYMODULE'),
  ('asyncio.selector_events',
   'c:\\users\\acer\\appdata\\local\\programs\\python\\python38\\lib\\asyncio\\selector_events.py',
   'PYMODULE'),
  ('asyncio.proactor_events',
   'c:\\users\\acer\\appdata\\local\\programs\\python\\python38\\lib\\asyncio\\proactor_events.py',
   'PYMODULE'),
  ('asyncio.base_subprocess',
   'c:\\users\\acer\\appdata\\local\\programs\\python\\python38\\lib\\asyncio\\base_subprocess.py',
   'PYMODULE'),
  ('asyncio.subprocess',
   'c:\\users\\acer\\appdata\\local\\programs\\python\\python38\\lib\\asyncio\\subprocess.py',
   'PYMODULE'),
  ('asyncio.streams',
   'c:\\users\\acer\\appdata\\local\\programs\\python\\python38\\lib\\asyncio\\streams.py',
   'PYMODULE'),
  ('asyncio.queues',
   'c:\\users\\acer\\appdata\\local\\programs\\python\\python38\\lib\\asyncio\\queues.py',
   'PYMODULE'),
  ('asyncio.runners',
   'c:\\users\\acer\\appdata\\local\\programs\\python\\python38\\lib\\asyncio\\runners.py',
   'PYMODULE'),
  ('asyncio.events',
   'c:\\users\\acer\\appdata\\local\\programs\\python\\python38\\lib\\asyncio\\events.py',
   'PYMODULE'),
  ('asyncio.trsock',
   'c:\\users\\acer\\appdata\\local\\programs\\python\\python38\\lib\\asyncio\\trsock.py',
   'PYMODULE'),
  ('asyncio.staggered',
   'c:\\users\\acer\\appdata\\local\\programs\\python\\python38\\lib\\asyncio\\staggered.py',
   'PYMODULE'),
  ('typing',
   'c:\\users\\acer\\appdata\\local\\programs\\python\\python38\\lib\\typing.py',
   'PYMODULE'),
  ('asyncio.tasks',
   'c:\\users\\acer\\appdata\\local\\programs\\python\\python38\\lib\\asyncio\\tasks.py',
   'PYMODULE'),
  ('concurrent.futures',
   'c:\\users\\acer\\appdata\\local\\programs\\python\\python38\\lib\\concurrent\\futures\\__init__.py',
   'PYMODULE'),
  ('concurrent.futures.thread',
   'c:\\users\\acer\\appdata\\local\\programs\\python\\python38\\lib\\concurrent\\futures\\thread.py',
   'PYMODULE'),
  ('queue',
   'c:\\users\\acer\\appdata\\local\\programs\\python\\python38\\lib\\queue.py',
   'PYMODULE'),
  ('concurrent.futures.process',
   'c:\\users\\acer\\appdata\\local\\programs\\python\\python38\\lib\\concurrent\\futures\\process.py',
   'PYMODULE'),
  ('multiprocessing.queues',
   'c:\\users\\acer\\appdata\\local\\programs\\python\\python38\\lib\\multiprocessing\\queues.py',
   'PYMODULE'),
  ('multiprocessing.synchronize',
   'c:\\users\\acer\\appdata\\local\\programs\\python\\python38\\lib\\multiprocessing\\synchronize.py',
   'PYMODULE'),
  ('multiprocessing.heap',
   'c:\\users\\acer\\appdata\\local\\programs\\python\\python38\\lib\\multiprocessing\\heap.py',
   'PYMODULE'),
  ('concurrent.futures._base',
   'c:\\users\\acer\\appdata\\local\\programs\\python\\python38\\lib\\concurrent\\futures\\_base.py',
   'PYMODULE'),
  ('concurrent',
   'c:\\users\\acer\\appdata\\local\\programs\\python\\python38\\lib\\concurrent\\__init__.py',
   'PYMODULE'),
  ('asyncio.base_tasks',
   'c:\\users\\acer\\appdata\\local\\programs\\python\\python38\\lib\\asyncio\\base_tasks.py',
   'PYMODULE'),
  ('asyncio.locks',
   'c:\\users\\acer\\appdata\\local\\programs\\python\\python38\\lib\\asyncio\\locks.py',
   'PYMODULE'),
  ('asyncio.sslproto',
   'c:\\users\\acer\\appdata\\local\\programs\\python\\python38\\lib\\asyncio\\sslproto.py',
   'PYMODULE'),
  ('asyncio.transports',
   'c:\\users\\acer\\appdata\\local\\programs\\python\\python38\\lib\\asyncio\\transports.py',
   'PYMODULE'),
  ('asyncio.base_events',
   'c:\\users\\acer\\appdata\\local\\programs\\python\\python38\\lib\\asyncio\\base_events.py',
   'PYMODULE'),
  ('asyncio.protocols',
   'c:\\users\\acer\\appdata\\local\\programs\\python\\python38\\lib\\asyncio\\protocols.py',
   'PYMODULE'),
  ('asyncio.futures',
   'c:\\users\\acer\\appdata\\local\\programs\\python\\python38\\lib\\asyncio\\futures.py',
   'PYMODULE'),
  ('asyncio.coroutines',
   'c:\\users\\acer\\appdata\\local\\programs\\python\\python38\\lib\\asyncio\\coroutines.py',
   'PYMODULE'),
  ('asyncio.base_futures',
   'c:\\users\\acer\\appdata\\local\\programs\\python\\python38\\lib\\asyncio\\base_futures.py',
   'PYMODULE'),
  ('asyncio.exceptions',
   'c:\\users\\acer\\appdata\\local\\programs\\python\\python38\\lib\\asyncio\\exceptions.py',
   'PYMODULE'),
  ('asyncio.format_helpers',
   'c:\\users\\acer\\appdata\\local\\programs\\python\\python38\\lib\\asyncio\\format_helpers.py',
   'PYMODULE'),
  ('asyncio.constants',
   'c:\\users\\acer\\appdata\\local\\programs\\python\\python38\\lib\\asyncio\\constants.py',
   'PYMODULE'),
  ('unittest.result',
   'c:\\users\\acer\\appdata\\local\\programs\\python\\python38\\lib\\unittest\\result.py',
   'PYMODULE'),
  ('unittest.util',
   'c:\\users\\acer\\appdata\\local\\programs\\python\\python38\\lib\\unittest\\util.py',
   'PYMODULE'),
  ('pdb',
   'c:\\users\\acer\\appdata\\local\\programs\\python\\python38\\lib\\pdb.py',
   'PYMODULE'),
  ('pydoc',
   'c:\\users\\acer\\appdata\\local\\programs\\python\\python38\\lib\\pydoc.py',
   'PYMODULE'),
  ('webbrowser',
   'c:\\users\\acer\\appdata\\local\\programs\\python\\python38\\lib\\webbrowser.py',
   'PYMODULE'),
  ('http.server',
   'c:\\users\\acer\\appdata\\local\\programs\\python\\python38\\lib\\http\\server.py',
   'PYMODULE'),
  ('socketserver',
   'c:\\users\\acer\\appdata\\local\\programs\\python\\python38\\lib\\socketserver.py',
   'PYMODULE'),
  ('html',
   'c:\\users\\acer\\appdata\\local\\programs\\python\\python38\\lib\\html\\__init__.py',
   'PYMODULE'),
  ('html.entities',
   'c:\\users\\acer\\appdata\\local\\programs\\python\\python38\\lib\\html\\entities.py',
   'PYMODULE'),
  ('pydoc_data.topics',
   'c:\\users\\acer\\appdata\\local\\programs\\python\\python38\\lib\\pydoc_data\\topics.py',
   'PYMODULE'),
  ('pydoc_data',
   'c:\\users\\acer\\appdata\\local\\programs\\python\\python38\\lib\\pydoc_data\\__init__.py',
   'PYMODULE'),
  ('tty',
   'c:\\users\\acer\\appdata\\local\\programs\\python\\python38\\lib\\tty.py',
   'PYMODULE'),
  ('sysconfig',
   'c:\\users\\acer\\appdata\\local\\programs\\python\\python38\\lib\\sysconfig.py',
   'PYMODULE'),
  ('_osx_support',
   'c:\\users\\acer\\appdata\\local\\programs\\python\\python38\\lib\\_osx_support.py',
   'PYMODULE'),
  ('distutils.log',
   'c:\\users\\acer\\appdata\\local\\programs\\python\\python38\\lib\\distutils\\log.py',
   'PYMODULE'),
  ('distutils',
   'c:\\users\\acer\\appdata\\local\\programs\\python\\python38\\lib\\distutils\\__init__.py',
   'PYMODULE'),
  ('distutils.ccompiler',
   'c:\\users\\acer\\appdata\\local\\programs\\python\\python38\\lib\\distutils\\ccompiler.py',
   'PYMODULE'),
  ('distutils.fancy_getopt',
   'c:\\users\\acer\\appdata\\local\\programs\\python\\python38\\lib\\distutils\\fancy_getopt.py',
   'PYMODULE'),
  ('distutils.debug',
   'c:\\users\\acer\\appdata\\local\\programs\\python\\python38\\lib\\distutils\\debug.py',
   'PYMODULE'),
  ('distutils.util',
   'c:\\users\\acer\\appdata\\local\\programs\\python\\python38\\lib\\distutils\\util.py',
   'PYMODULE'),
  ('distutils.filelist',
   'c:\\users\\acer\\appdata\\local\\programs\\python\\python38\\lib\\distutils\\filelist.py',
   'PYMODULE'),
  ('distutils.dep_util',
   'c:\\users\\acer\\appdata\\local\\programs\\python\\python38\\lib\\distutils\\dep_util.py',
   'PYMODULE'),
  ('distutils.dir_util',
   'c:\\users\\acer\\appdata\\local\\programs\\python\\python38\\lib\\distutils\\dir_util.py',
   'PYMODULE'),
  ('distutils.file_util',
   'c:\\users\\acer\\appdata\\local\\programs\\python\\python38\\lib\\distutils\\file_util.py',
   'PYMODULE'),
  ('distutils.spawn',
   'c:\\users\\acer\\appdata\\local\\programs\\python\\python38\\lib\\distutils\\spawn.py',
   'PYMODULE'),
  ('distutils.errors',
   'c:\\users\\acer\\appdata\\local\\programs\\python\\python38\\lib\\distutils\\errors.py',
   'PYMODULE'),
  ('distutils.sysconfig',
   'c:\\users\\acer\\appdata\\local\\programs\\python\\python38\\lib\\distutils\\sysconfig.py',
   'PYMODULE'),
  ('distutils.text_file',
   'c:\\users\\acer\\appdata\\local\\programs\\python\\python38\\lib\\distutils\\text_file.py',
   'PYMODULE'),
  ('platform',
   'c:\\users\\acer\\appdata\\local\\programs\\python\\python38\\lib\\platform.py',
   'PYMODULE'),
  ('plistlib',
   'c:\\users\\acer\\appdata\\local\\programs\\python\\python38\\lib\\plistlib.py',
   'PYMODULE'),
  ('pkgutil',
   'c:\\users\\acer\\appdata\\local\\programs\\python\\python38\\lib\\pkgutil.py',
   'PYMODULE'),
  ('zipimport',
   'c:\\users\\acer\\appdata\\local\\programs\\python\\python38\\lib\\zipimport.py',
   'PYMODULE'),
  ('runpy',
   'c:\\users\\acer\\appdata\\local\\programs\\python\\python38\\lib\\runpy.py',
   'PYMODULE'),
  ('glob',
   'c:\\users\\acer\\appdata\\local\\programs\\python\\python38\\lib\\glob.py',
   'PYMODULE'),
  ('code',
   'c:\\users\\acer\\appdata\\local\\programs\\python\\python38\\lib\\code.py',
   'PYMODULE'),
  ('codeop',
   'c:\\users\\acer\\appdata\\local\\programs\\python\\python38\\lib\\codeop.py',
   'PYMODULE'),
  ('dis',
   'c:\\users\\acer\\appdata\\local\\programs\\python\\python38\\lib\\dis.py',
   'PYMODULE'),
  ('opcode',
   'c:\\users\\acer\\appdata\\local\\programs\\python\\python38\\lib\\opcode.py',
   'PYMODULE'),
  ('bdb',
   'c:\\users\\acer\\appdata\\local\\programs\\python\\python38\\lib\\bdb.py',
   'PYMODULE'),
  ('cmd',
   'c:\\users\\acer\\appdata\\local\\programs\\python\\python38\\lib\\cmd.py',
   'PYMODULE'),
  ('inspect',
   'c:\\users\\acer\\appdata\\local\\programs\\python\\python38\\lib\\inspect.py',
   'PYMODULE'),
  ('ast',
   'c:\\users\\acer\\appdata\\local\\programs\\python\\python38\\lib\\ast.py',
   'PYMODULE'),
  ('difflib',
   'c:\\users\\acer\\appdata\\local\\programs\\python\\python38\\lib\\difflib.py',
   'PYMODULE'),
  ('__future__',
   'c:\\users\\acer\\appdata\\local\\programs\\python\\python38\\lib\\__future__.py',
   'PYMODULE'),
  ('_compat_pickle',
   'c:\\users\\acer\\appdata\\local\\programs\\python\\python38\\lib\\_compat_pickle.py',
   'PYMODULE'),
  ('multiprocessing.process',
   'c:\\users\\acer\\appdata\\local\\programs\\python\\python38\\lib\\multiprocessing\\process.py',
   'PYMODULE'),
  ('multiprocessing.context',
   'c:\\users\\acer\\appdata\\local\\programs\\python\\python38\\lib\\multiprocessing\\context.py',
   'PYMODULE'),
  ('multiprocessing.popen_forkserver',
   'c:\\users\\acer\\appdata\\local\\programs\\python\\python38\\lib\\multiprocessing\\popen_forkserver.py',
   'PYMODULE'),
  ('multiprocessing.sharedctypes',
   'c:\\users\\acer\\appdata\\local\\programs\\python\\python38\\lib\\multiprocessing\\sharedctypes.py',
   'PYMODULE'),
  ('ctypes',
   'c:\\users\\acer\\appdata\\local\\programs\\python\\python38\\lib\\ctypes\\__init__.py',
   'PYMODULE'),
  ('ctypes._endian',
   'c:\\users\\acer\\appdata\\local\\programs\\python\\python38\\lib\\ctypes\\_endian.py',
   'PYMODULE'),
  ('multiprocessing.pool',
   'c:\\users\\acer\\appdata\\local\\programs\\python\\python38\\lib\\multiprocessing\\pool.py',
   'PYMODULE'),
  ('multiprocessing.dummy',
   'c:\\users\\acer\\appdata\\local\\programs\\python\\python38\\lib\\multiprocessing\\dummy\\__init__.py',
   'PYMODULE'),
  ('multiprocessing.dummy.connection',
   'c:\\users\\acer\\appdata\\local\\programs\\python\\python38\\lib\\multiprocessing\\dummy\\connection.py',
   'PYMODULE'),
  ('multiprocessing.managers',
   'c:\\users\\acer\\appdata\\local\\programs\\python\\python38\\lib\\multiprocessing\\managers.py',
   'PYMODULE'),
  ('multiprocessing.shared_memory',
   'c:\\users\\acer\\appdata\\local\\programs\\python\\python38\\lib\\multiprocessing\\shared_memory.py',
   'PYMODULE'),
  ('secrets',
   'c:\\users\\acer\\appdata\\local\\programs\\python\\python38\\lib\\secrets.py',
   'PYMODULE'),
  ('multiprocessing.reduction',
   'c:\\users\\acer\\appdata\\local\\programs\\python\\python38\\lib\\multiprocessing\\reduction.py',
   'PYMODULE'),
  ('multiprocessing.popen_fork',
   'c:\\users\\acer\\appdata\\local\\programs\\python\\python38\\lib\\multiprocessing\\popen_fork.py',
   'PYMODULE'),
  ('multiprocessing.popen_spawn_win32',
   'c:\\users\\acer\\appdata\\local\\programs\\python\\python38\\lib\\multiprocessing\\popen_spawn_win32.py',
   'PYMODULE'),
  ('subprocess',
   'c:\\users\\acer\\appdata\\local\\programs\\python\\python38\\lib\\subprocess.py',
   'PYMODULE'),
  ('multiprocessing.spawn',
   'c:\\users\\acer\\appdata\\local\\programs\\python\\python38\\lib\\multiprocessing\\spawn.py',
   'PYMODULE'),
  ('multiprocessing',
   'c:\\users\\acer\\appdata\\local\\programs\\python\\python38\\lib\\multiprocessing\\__init__.py',
   'PYMODULE'),
  ('os',
   'c:\\users\\acer\\appdata\\local\\programs\\python\\python38\\lib\\os.py',
   'PYMODULE'),
  ('tracemalloc',
   'c:\\users\\acer\\appdata\\local\\programs\\python\\python38\\lib\\tracemalloc.py',
   'PYMODULE'),
  ('stringprep',
   'c:\\users\\acer\\appdata\\local\\programs\\python\\python38\\lib\\stringprep.py',
   'PYMODULE'),
  ('_py_abc',
   'c:\\users\\acer\\appdata\\local\\programs\\python\\python38\\lib\\_py_abc.py',
   'PYMODULE'),
  ('selenium.webdriver.chrome.options',
   'c:\\users\\acer\\appdata\\local\\programs\\python\\python38\\lib\\site-packages\\selenium\\webdriver\\chrome\\options.py',
   'PYMODULE'),
  ('selenium.webdriver.chrome',
   'c:\\users\\acer\\appdata\\local\\programs\\python\\python38\\lib\\site-packages\\selenium\\webdriver\\chrome\\__init__.py',
   'PYMODULE'),
  ('selenium.webdriver.remote.file_detector',
   'c:\\users\\acer\\appdata\\local\\programs\\python\\python38\\lib\\site-packages\\selenium\\webdriver\\remote\\file_detector.py',
   'PYMODULE'),
  ('selenium.webdriver.remote',
   'c:\\users\\acer\\appdata\\local\\programs\\python\\python38\\lib\\site-packages\\selenium\\webdriver\\remote\\__init__.py',
   'PYMODULE'),
  ('selenium.webdriver.remote.utils',
   'c:\\users\\acer\\appdata\\local\\programs\\python\\python38\\lib\\site-packages\\selenium\\webdriver\\remote\\utils.py',
   'PYMODULE'),
  ('json',
   'c:\\users\\acer\\appdata\\local\\programs\\python\\python38\\lib\\json\\__init__.py',
   'PYMODULE'),
  ('json.encoder',
   'c:\\users\\acer\\appdata\\local\\programs\\python\\python38\\lib\\json\\encoder.py',
   'PYMODULE'),
  ('json.decoder',
   'c:\\users\\acer\\appdata\\local\\programs\\python\\python38\\lib\\json\\decoder.py',
   'PYMODULE'),
  ('json.scanner',
   'c:\\users\\acer\\appdata\\local\\programs\\python\\python38\\lib\\json\\scanner.py',
   'PYMODULE'),
  ('selenium.webdriver.common.utils',
   'c:\\users\\acer\\appdata\\local\\programs\\python\\python38\\lib\\site-packages\\selenium\\webdriver\\common\\utils.py',
   'PYMODULE'),
  ('selenium.webdriver.common',
   'c:\\users\\acer\\appdata\\local\\programs\\python\\python38\\lib\\site-packages\\selenium\\webdriver\\common\\__init__.py',
   'PYMODULE'),
  ('selenium.webdriver.common.service',
   'c:\\users\\acer\\appdata\\local\\programs\\python\\python38\\lib\\site-packages\\selenium\\webdriver\\common\\service.py',
   'PYMODULE'),
  ('selenium.common.exceptions',
   'c:\\users\\acer\\appdata\\local\\programs\\python\\python38\\lib\\site-packages\\selenium\\common\\exceptions.py',
   'PYMODULE'),
  ('selenium.common',
   'c:\\users\\acer\\appdata\\local\\programs\\python\\python38\\lib\\site-packages\\selenium\\common\\__init__.py',
   'PYMODULE'),
  ('selenium.webdriver.common.desired_capabilities',
   'c:\\users\\acer\\appdata\\local\\programs\\python\\python38\\lib\\site-packages\\selenium\\webdriver\\common\\desired_capabilities.py',
   'PYMODULE'),
  ('selenium.webdriver.support.ui',
   'c:\\users\\acer\\appdata\\local\\programs\\python\\python38\\lib\\site-packages\\selenium\\webdriver\\support\\ui.py',
   'PYMODULE'),
  ('selenium.webdriver.support.wait',
   'c:\\users\\acer\\appdata\\local\\programs\\python\\python38\\lib\\site-packages\\selenium\\webdriver\\support\\wait.py',
   'PYMODULE'),
  ('selenium.webdriver.support.select',
   'c:\\users\\acer\\appdata\\local\\programs\\python\\python38\\lib\\site-packages\\selenium\\webdriver\\support\\select.py',
   'PYMODULE'),
  ('selenium.webdriver.support.expected_conditions',
   'c:\\users\\acer\\appdata\\local\\programs\\python\\python38\\lib\\site-packages\\selenium\\webdriver\\support\\expected_conditions.py',
   'PYMODULE'),
  ('selenium.webdriver.support',
   'c:\\users\\acer\\appdata\\local\\programs\\python\\python38\\lib\\site-packages\\selenium\\webdriver\\support\\__init__.py',
   'PYMODULE'),
  ('selenium.webdriver.remote.webdriver',
   'c:\\users\\acer\\appdata\\local\\programs\\python\\python38\\lib\\site-packages\\selenium\\webdriver\\remote\\webdriver.py',
   'PYMODULE'),
  ('selenium.webdriver.common.html5.application_cache',
   'c:\\users\\acer\\appdata\\local\\programs\\python\\python38\\lib\\site-packages\\selenium\\webdriver\\common\\html5\\application_cache.py',
   'PYMODULE'),
  ('selenium.webdriver.common.html5',
   'c:\\users\\acer\\appdata\\local\\programs\\python\\python38\\lib\\site-packages\\selenium\\webdriver\\common\\html5\\__init__.py',
   'PYMODULE'),
  ('selenium.webdriver.remote.mobile',
   'c:\\users\\acer\\appdata\\local\\programs\\python\\python38\\lib\\site-packages\\selenium\\webdriver\\remote\\mobile.py',
   'PYMODULE'),
  ('selenium.webdriver.remote.switch_to',
   'c:\\users\\acer\\appdata\\local\\programs\\python\\python38\\lib\\site-packages\\selenium\\webdriver\\remote\\switch_to.py',
   'PYMODULE'),
  ('selenium.webdriver.common.alert',
   'c:\\users\\acer\\appdata\\local\\programs\\python\\python38\\lib\\site-packages\\selenium\\webdriver\\common\\alert.py',
   'PYMODULE'),
  ('selenium.webdriver.remote.errorhandler',
   'c:\\users\\acer\\appdata\\local\\programs\\python\\python38\\lib\\site-packages\\selenium\\webdriver\\remote\\errorhandler.py',
   'PYMODULE'),
  ('selenium.webdriver.remote.remote_connection',
   'c:\\users\\acer\\appdata\\local\\programs\\python\\python38\\lib\\site-packages\\selenium\\webdriver\\remote\\remote_connection.py',
   'PYMODULE'),
  ('urllib3',
   'c:\\users\\acer\\appdata\\local\\programs\\python\\python38\\lib\\site-packages\\urllib3\\__init__.py',
   'PYMODULE'),
  ('urllib3.util.url',
   'c:\\users\\acer\\appdata\\local\\programs\\python\\python38\\lib\\site-packages\\urllib3\\util\\url.py',
   'PYMODULE'),
  ('urllib3.util',
   'c:\\users\\acer\\appdata\\local\\programs\\python\\python38\\lib\\site-packages\\urllib3\\util\\__init__.py',
   'PYMODULE'),
  ('urllib3.util.wait',
   'c:\\users\\acer\\appdata\\local\\programs\\python\\python38\\lib\\site-packages\\urllib3\\util\\wait.py',
   'PYMODULE'),
  ('urllib3.util.ssl_',
   'c:\\users\\acer\\appdata\\local\\programs\\python\\python38\\lib\\site-packages\\urllib3\\util\\ssl_.py',
   'PYMODULE'),
  ('urllib3.util.ssltransport',
   'c:\\users\\acer\\appdata\\local\\programs\\python\\python38\\lib\\site-packages\\urllib3\\util\\ssltransport.py',
   'PYMODULE'),
  ('urllib3.util.response',
   'c:\\users\\acer\\appdata\\local\\programs\\python\\python38\\lib\\site-packages\\urllib3\\util\\response.py',
   'PYMODULE'),
  ('urllib3.util.connection',
   'c:\\users\\acer\\appdata\\local\\programs\\python\\python38\\lib\\site-packages\\urllib3\\util\\connection.py',
   'PYMODULE'),
  ('urllib3.contrib._appengine_environ',
   'c:\\users\\acer\\appdata\\local\\programs\\python\\python38\\lib\\site-packages\\urllib3\\contrib\\_appengine_environ.py',
   'PYMODULE'),
  ('urllib3.contrib',
   'c:\\users\\acer\\appdata\\local\\programs\\python\\python38\\lib\\site-packages\\urllib3\\contrib\\__init__.py',
   'PYMODULE'),
  ('idna',
   'c:\\users\\acer\\appdata\\local\\programs\\python\\python38\\lib\\site-packages\\idna\\__init__.py',
   'PYMODULE'),
  ('idna.core',
   'c:\\users\\acer\\appdata\\local\\programs\\python\\python38\\lib\\site-packages\\idna\\core.py',
   'PYMODULE'),
  ('idna.uts46data',
   'c:\\users\\acer\\appdata\\local\\programs\\python\\python38\\lib\\site-packages\\idna\\uts46data.py',
   'PYMODULE'),
  ('idna.intranges',
   'c:\\users\\acer\\appdata\\local\\programs\\python\\python38\\lib\\site-packages\\idna\\intranges.py',
   'PYMODULE'),
  ('idna.idnadata',
   'c:\\users\\acer\\appdata\\local\\programs\\python\\python38\\lib\\site-packages\\idna\\idnadata.py',
   'PYMODULE'),
  ('idna.package_data',
   'c:\\users\\acer\\appdata\\local\\programs\\python\\python38\\lib\\site-packages\\idna\\package_data.py',
   'PYMODULE'),
  ('urllib3.packages.six',
   'c:\\users\\acer\\appdata\\local\\programs\\python\\python38\\lib\\site-packages\\urllib3\\packages\\six.py',
   'PYMODULE'),
  ('urllib3.packages',
   'c:\\users\\acer\\appdata\\local\\programs\\python\\python38\\lib\\site-packages\\urllib3\\packages\\__init__.py',
   'PYMODULE'),
  ('urllib3.packages.ssl_match_hostname',
   'c:\\users\\acer\\appdata\\local\\programs\\python\\python38\\lib\\site-packages\\urllib3\\packages\\ssl_match_hostname\\__init__.py',
   'PYMODULE'),
  ('urllib3.packages.ssl_match_hostname._implementation',
   'c:\\users\\acer\\appdata\\local\\programs\\python\\python38\\lib\\site-packages\\urllib3\\packages\\ssl_match_hostname\\_implementation.py',
   'PYMODULE'),
  ('ipaddress',
   'c:\\users\\acer\\appdata\\local\\programs\\python\\python38\\lib\\ipaddress.py',
   'PYMODULE'),
  ('urllib3.util.timeout',
   'c:\\users\\acer\\appdata\\local\\programs\\python\\python38\\lib\\site-packages\\urllib3\\util\\timeout.py',
   'PYMODULE'),
  ('urllib3.util.retry',
   'c:\\users\\acer\\appdata\\local\\programs\\python\\python38\\lib\\site-packages\\urllib3\\util\\retry.py',
   'PYMODULE'),
  ('urllib3.util.request',
   'c:\\users\\acer\\appdata\\local\\programs\\python\\python38\\lib\\site-packages\\urllib3\\util\\request.py',
   'PYMODULE'),
  ('urllib3.response',
   'c:\\users\\acer\\appdata\\local\\programs\\python\\python38\\lib\\site-packages\\urllib3\\response.py',
   'PYMODULE'),
  ('urllib3.connection',
   'c:\\users\\acer\\appdata\\local\\programs\\python\\python38\\lib\\site-packages\\urllib3\\connection.py',
   'PYMODULE'),
  ('urllib3.util.proxy',
   'c:\\users\\acer\\appdata\\local\\programs\\python\\python38\\lib\\site-packages\\urllib3\\util\\proxy.py',
   'PYMODULE'),
  ('urllib3._collections',
   'c:\\users\\acer\\appdata\\local\\programs\\python\\python38\\lib\\site-packages\\urllib3\\_collections.py',
   'PYMODULE'),
  ('urllib3.poolmanager',
   'c:\\users\\acer\\appdata\\local\\programs\\python\\python38\\lib\\site-packages\\urllib3\\poolmanager.py',
   'PYMODULE'),
  ('urllib3.request',
   'c:\\users\\acer\\appdata\\local\\programs\\python\\python38\\lib\\site-packages\\urllib3\\request.py',
   'PYMODULE'),
  ('urllib3.filepost',
   'c:\\users\\acer\\appdata\\local\\programs\\python\\python38\\lib\\site-packages\\urllib3\\filepost.py',
   'PYMODULE'),
  ('urllib3.fields',
   'c:\\users\\acer\\appdata\\local\\programs\\python\\python38\\lib\\site-packages\\urllib3\\fields.py',
   'PYMODULE'),
  ('urllib3.connectionpool',
   'c:\\users\\acer\\appdata\\local\\programs\\python\\python38\\lib\\site-packages\\urllib3\\connectionpool.py',
   'PYMODULE'),
  ('urllib3.util.queue',
   'c:\\users\\acer\\appdata\\local\\programs\\python\\python38\\lib\\site-packages\\urllib3\\util\\queue.py',
   'PYMODULE'),
  ('urllib3._version',
   'c:\\users\\acer\\appdata\\local\\programs\\python\\python38\\lib\\site-packages\\urllib3\\_version.py',
   'PYMODULE'),
  ('urllib3.exceptions',
   'c:\\users\\acer\\appdata\\local\\programs\\python\\python38\\lib\\site-packages\\urllib3\\exceptions.py',
   'PYMODULE'),
  ('selenium.webdriver.remote.webelement',
   'c:\\users\\acer\\appdata\\local\\programs\\python\\python38\\lib\\site-packages\\selenium\\webdriver\\remote\\webelement.py',
   'PYMODULE'),
  ('selenium.webdriver.remote.command',
   'c:\\users\\acer\\appdata\\local\\programs\\python\\python38\\lib\\site-packages\\selenium\\webdriver\\remote\\command.py',
   'PYMODULE'),
  ('selenium.webdriver.common.by',
   'c:\\users\\acer\\appdata\\local\\programs\\python\\python38\\lib\\site-packages\\selenium\\webdriver\\common\\by.py',
   'PYMODULE'),
  ('selenium.webdriver.common.action_chains',
   'c:\\users\\acer\\appdata\\local\\programs\\python\\python38\\lib\\site-packages\\selenium\\webdriver\\common\\action_chains.py',
   'PYMODULE'),
  ('selenium.webdriver.common.actions.action_builder',
   'c:\\users\\acer\\appdata\\local\\programs\\python\\python38\\lib\\site-packages\\selenium\\webdriver\\common\\actions\\action_builder.py',
   'PYMODULE'),
  ('selenium.webdriver.common.actions.pointer_input',
   'c:\\users\\acer\\appdata\\local\\programs\\python\\python38\\lib\\site-packages\\selenium\\webdriver\\common\\actions\\pointer_input.py',
   'PYMODULE'),
  ('selenium.webdriver.common.actions.input_device',
   'c:\\users\\acer\\appdata\\local\\programs\\python\\python38\\lib\\site-packages\\selenium\\webdriver\\common\\actions\\input_device.py',
   'PYMODULE'),
  ('uuid',
   'c:\\users\\acer\\appdata\\local\\programs\\python\\python38\\lib\\uuid.py',
   'PYMODULE'),
  ('ctypes.util',
   'c:\\users\\acer\\appdata\\local\\programs\\python\\python38\\lib\\ctypes\\util.py',
   'PYMODULE'),
  ('ctypes._aix',
   'c:\\users\\acer\\appdata\\local\\programs\\python\\python38\\lib\\ctypes\\_aix.py',
   'PYMODULE'),
  ('ctypes.macholib.dyld',
   'c:\\users\\acer\\appdata\\local\\programs\\python\\python38\\lib\\ctypes\\macholib\\dyld.py',
   'PYMODULE'),
  ('ctypes.macholib',
   'c:\\users\\acer\\appdata\\local\\programs\\python\\python38\\lib\\ctypes\\macholib\\__init__.py',
   'PYMODULE'),
  ('ctypes.macholib.dylib',
   'c:\\users\\acer\\appdata\\local\\programs\\python\\python38\\lib\\ctypes\\macholib\\dylib.py',
   'PYMODULE'),
  ('ctypes.macholib.framework',
   'c:\\users\\acer\\appdata\\local\\programs\\python\\python38\\lib\\ctypes\\macholib\\framework.py',
   'PYMODULE'),
  ('netbios',
   'c:\\users\\acer\\appdata\\local\\programs\\python\\python38\\lib\\site-packages\\win32\\lib\\netbios.py',
   'PYMODULE'),
  ('selenium.webdriver.common.actions.pointer_actions',
   'c:\\users\\acer\\appdata\\local\\programs\\python\\python38\\lib\\site-packages\\selenium\\webdriver\\common\\actions\\pointer_actions.py',
   'PYMODULE'),
  ('selenium.webdriver.common.actions.mouse_button',
   'c:\\users\\acer\\appdata\\local\\programs\\python\\python38\\lib\\site-packages\\selenium\\webdriver\\common\\actions\\mouse_button.py',
   'PYMODULE'),
  ('selenium.webdriver.common.actions.key_input',
   'c:\\users\\acer\\appdata\\local\\programs\\python\\python38\\lib\\site-packages\\selenium\\webdriver\\common\\actions\\key_input.py',
   'PYMODULE'),
  ('selenium.webdriver.common.actions.key_actions',
   'c:\\users\\acer\\appdata\\local\\programs\\python\\python38\\lib\\site-packages\\selenium\\webdriver\\common\\actions\\key_actions.py',
   'PYMODULE'),
  ('selenium.webdriver.common.actions.interaction',
   'c:\\users\\acer\\appdata\\local\\programs\\python\\python38\\lib\\site-packages\\selenium\\webdriver\\common\\actions\\interaction.py',
   'PYMODULE'),
  ('selenium.webdriver.common.actions',
   'c:\\users\\acer\\appdata\\local\\programs\\python\\python38\\lib\\site-packages\\selenium\\webdriver\\common\\actions\\__init__.py',
   'PYMODULE'),
  ('selenium.webdriver.common.keys',
   'c:\\users\\acer\\appdata\\local\\programs\\python\\python38\\lib\\site-packages\\selenium\\webdriver\\common\\keys.py',
   'PYMODULE'),
  ('selenium.webdriver',
   'c:\\users\\acer\\appdata\\local\\programs\\python\\python38\\lib\\site-packages\\selenium\\webdriver\\__init__.py',
   'PYMODULE'),
  ('selenium.webdriver.common.proxy',
   'c:\\users\\acer\\appdata\\local\\programs\\python\\python38\\lib\\site-packages\\selenium\\webdriver\\common\\proxy.py',
   'PYMODULE'),
  ('selenium.webdriver.common.touch_actions',
   'c:\\users\\acer\\appdata\\local\\programs\\python\\python38\\lib\\site-packages\\selenium\\webdriver\\common\\touch_actions.py',
   'PYMODULE'),
  ('selenium.webdriver.webkitgtk.options',
   'c:\\users\\acer\\appdata\\local\\programs\\python\\python38\\lib\\site-packages\\selenium\\webdriver\\webkitgtk\\options.py',
   'PYMODULE'),
  ('selenium.webdriver.webkitgtk',
   'c:\\users\\acer\\appdata\\local\\programs\\python\\python38\\lib\\site-packages\\selenium\\webdriver\\webkitgtk\\__init__.py',
   'PYMODULE'),
  ('selenium.webdriver.webkitgtk.webdriver',
   'c:\\users\\acer\\appdata\\local\\programs\\python\\python38\\lib\\site-packages\\selenium\\webdriver\\webkitgtk\\webdriver.py',
   'PYMODULE'),
  ('selenium.webdriver.webkitgtk.service',
   'c:\\users\\acer\\appdata\\local\\programs\\python\\python38\\lib\\site-packages\\selenium\\webdriver\\webkitgtk\\service.py',
   'PYMODULE'),
  ('selenium.webdriver.android.webdriver',
   'c:\\users\\acer\\appdata\\local\\programs\\python\\python38\\lib\\site-packages\\selenium\\webdriver\\android\\webdriver.py',
   'PYMODULE'),
  ('selenium.webdriver.android',
   'c:\\users\\acer\\appdata\\local\\programs\\python\\python38\\lib\\site-packages\\selenium\\webdriver\\android\\__init__.py',
   'PYMODULE'),
  ('selenium.webdriver.phantomjs.webdriver',
   'c:\\users\\acer\\appdata\\local\\programs\\python\\python38\\lib\\site-packages\\selenium\\webdriver\\phantomjs\\webdriver.py',
   'PYMODULE'),
  ('selenium.webdriver.phantomjs',
   'c:\\users\\acer\\appdata\\local\\programs\\python\\python38\\lib\\site-packages\\selenium\\webdriver\\phantomjs\\__init__.py',
   'PYMODULE'),
  ('selenium.webdriver.phantomjs.service',
   'c:\\users\\acer\\appdata\\local\\programs\\python\\python38\\lib\\site-packages\\selenium\\webdriver\\phantomjs\\service.py',
   'PYMODULE'),
  ('selenium.webdriver.blackberry.webdriver',
   'c:\\users\\acer\\appdata\\local\\programs\\python\\python38\\lib\\site-packages\\selenium\\webdriver\\blackberry\\webdriver.py',
   'PYMODULE'),
  ('selenium.webdriver.blackberry',
   'c:\\users\\acer\\appdata\\local\\programs\\python\\python38\\lib\\site-packages\\selenium\\webdriver\\blackberry\\__init__.py',
   'PYMODULE'),
  ('selenium.webdriver.safari.webdriver',
   'c:\\users\\acer\\appdata\\local\\programs\\python\\python38\\lib\\site-packages\\selenium\\webdriver\\safari\\webdriver.py',
   'PYMODULE'),
  ('selenium.webdriver.safari',
   'c:\\users\\acer\\appdata\\local\\programs\\python\\python38\\lib\\site-packages\\selenium\\webdriver\\safari\\__init__.py',
   'PYMODULE'),
  ('selenium.webdriver.safari.remote_connection',
   'c:\\users\\acer\\appdata\\local\\programs\\python\\python38\\lib\\site-packages\\selenium\\webdriver\\safari\\remote_connection.py',
   'PYMODULE'),
  ('selenium.webdriver.safari.service',
   'c:\\users\\acer\\appdata\\local\\programs\\python\\python38\\lib\\site-packages\\selenium\\webdriver\\safari\\service.py',
   'PYMODULE'),
  ('selenium.webdriver.opera.webdriver',
   'c:\\users\\acer\\appdata\\local\\programs\\python\\python38\\lib\\site-packages\\selenium\\webdriver\\opera\\webdriver.py',
   'PYMODULE'),
  ('selenium.webdriver.opera',
   'c:\\users\\acer\\appdata\\local\\programs\\python\\python38\\lib\\site-packages\\selenium\\webdriver\\opera\\__init__.py',
   'PYMODULE'),
  ('selenium.webdriver.opera.options',
   'c:\\users\\acer\\appdata\\local\\programs\\python\\python38\\lib\\site-packages\\selenium\\webdriver\\opera\\options.py',
   'PYMODULE'),
  ('selenium.webdriver.edge.webdriver',
   'c:\\users\\acer\\appdata\\local\\programs\\python\\python38\\lib\\site-packages\\selenium\\webdriver\\edge\\webdriver.py',
   'PYMODULE'),
  ('selenium.webdriver.edge',
   'c:\\users\\acer\\appdata\\local\\programs\\python\\python38\\lib\\site-packages\\selenium\\webdriver\\edge\\__init__.py',
   'PYMODULE'),
  ('selenium.webdriver.edge.service',
   'c:\\users\\acer\\appdata\\local\\programs\\python\\python38\\lib\\site-packages\\selenium\\webdriver\\edge\\service.py',
   'PYMODULE'),
  ('selenium.webdriver.ie.options',
   'c:\\users\\acer\\appdata\\local\\programs\\python\\python38\\lib\\site-packages\\selenium\\webdriver\\ie\\options.py',
   'PYMODULE'),
  ('selenium.webdriver.ie',
   'c:\\users\\acer\\appdata\\local\\programs\\python\\python38\\lib\\site-packages\\selenium\\webdriver\\ie\\__init__.py',
   'PYMODULE'),
  ('selenium.webdriver.ie.webdriver',
   'c:\\users\\acer\\appdata\\local\\programs\\python\\python38\\lib\\site-packages\\selenium\\webdriver\\ie\\webdriver.py',
   'PYMODULE'),
  ('selenium.webdriver.ie.service',
   'c:\\users\\acer\\appdata\\local\\programs\\python\\python38\\lib\\site-packages\\selenium\\webdriver\\ie\\service.py',
   'PYMODULE'),
  ('selenium.webdriver.chrome.webdriver',
   'c:\\users\\acer\\appdata\\local\\programs\\python\\python38\\lib\\site-packages\\selenium\\webdriver\\chrome\\webdriver.py',
   'PYMODULE'),
  ('selenium.webdriver.chrome.service',
   'c:\\users\\acer\\appdata\\local\\programs\\python\\python38\\lib\\site-packages\\selenium\\webdriver\\chrome\\service.py',
   'PYMODULE'),
  ('selenium.webdriver.chrome.remote_connection',
   'c:\\users\\acer\\appdata\\local\\programs\\python\\python38\\lib\\site-packages\\selenium\\webdriver\\chrome\\remote_connection.py',
   'PYMODULE'),
  ('selenium.webdriver.firefox.options',
   'c:\\users\\acer\\appdata\\local\\programs\\python\\python38\\lib\\site-packages\\selenium\\webdriver\\firefox\\options.py',
   'PYMODULE'),
  ('selenium.webdriver.firefox',
   'c:\\users\\acer\\appdata\\local\\programs\\python\\python38\\lib\\site-packages\\selenium\\webdriver\\firefox\\__init__.py',
   'PYMODULE'),
  ('selenium.webdriver.firefox.firefox_binary',
   'c:\\users\\acer\\appdata\\local\\programs\\python\\python38\\lib\\site-packages\\selenium\\webdriver\\firefox\\firefox_binary.py',
   'PYMODULE'),
  ('selenium.webdriver.firefox.firefox_profile',
   'c:\\users\\acer\\appdata\\local\\programs\\python\\python38\\lib\\site-packages\\selenium\\webdriver\\firefox\\firefox_profile.py',
   'PYMODULE'),
  ('xml.dom.minidom',
   'c:\\users\\acer\\appdata\\local\\programs\\python\\python38\\lib\\xml\\dom\\minidom.py',
   'PYMODULE'),
  ('xml.dom.pulldom',
   'c:\\users\\acer\\appdata\\local\\programs\\python\\python38\\lib\\xml\\dom\\pulldom.py',
   'PYMODULE'),
  ('xml.dom.expatbuilder',
   'c:\\users\\acer\\appdata\\local\\programs\\python\\python38\\lib\\xml\\dom\\expatbuilder.py',
   'PYMODULE'),
  ('xml.dom.NodeFilter',
   'c:\\users\\acer\\appdata\\local\\programs\\python\\python38\\lib\\xml\\dom\\NodeFilter.py',
   'PYMODULE'),
  ('xml.dom.xmlbuilder',
   'c:\\users\\acer\\appdata\\local\\programs\\python\\python38\\lib\\xml\\dom\\xmlbuilder.py',
   'PYMODULE'),
  ('xml.dom.minicompat',
   'c:\\users\\acer\\appdata\\local\\programs\\python\\python38\\lib\\xml\\dom\\minicompat.py',
   'PYMODULE'),
  ('xml.dom.domreg',
   'c:\\users\\acer\\appdata\\local\\programs\\python\\python38\\lib\\xml\\dom\\domreg.py',
   'PYMODULE'),
  ('xml.dom',
   'c:\\users\\acer\\appdata\\local\\programs\\python\\python38\\lib\\xml\\dom\\__init__.py',
   'PYMODULE'),
  ('selenium.webdriver.firefox.webdriver',
   'c:\\users\\acer\\appdata\\local\\programs\\python\\python38\\lib\\site-packages\\selenium\\webdriver\\firefox\\webdriver.py',
   'PYMODULE'),
  ('selenium.webdriver.firefox.webelement',
   'c:\\users\\acer\\appdata\\local\\programs\\python\\python38\\lib\\site-packages\\selenium\\webdriver\\firefox\\webelement.py',
   'PYMODULE'),
  ('selenium.webdriver.firefox.service',
   'c:\\users\\acer\\appdata\\local\\programs\\python\\python38\\lib\\site-packages\\selenium\\webdriver\\firefox\\service.py',
   'PYMODULE'),
  ('selenium.webdriver.firefox.remote_connection',
   'c:\\users\\acer\\appdata\\local\\programs\\python\\python38\\lib\\site-packages\\selenium\\webdriver\\firefox\\remote_connection.py',
   'PYMODULE'),
  ('selenium.webdriver.firefox.extension_connection',
   'c:\\users\\acer\\appdata\\local\\programs\\python\\python38\\lib\\site-packages\\selenium\\webdriver\\firefox\\extension_connection.py',
   'PYMODULE'),
  ('selenium',
   'c:\\users\\acer\\appdata\\local\\programs\\python\\python38\\lib\\site-packages\\selenium\\__init__.py',
   'PYMODULE'),
  ('datetime',
   'c:\\users\\acer\\appdata\\local\\programs\\python\\python38\\lib\\datetime.py',
   'PYMODULE'),
  ('_strptime',
   'c:\\users\\acer\\appdata\\local\\programs\\python\\python38\\lib\\_strptime.py',
   'PYMODULE')],
 [('api-ms-win-crt-runtime-l1-1-0.dll',
   'C:\\Windows\\system32\\api-ms-win-crt-runtime-l1-1-0.dll',
   'BINARY'),
  ('api-ms-win-crt-locale-l1-1-0.dll',
   'C:\\Windows\\system32\\api-ms-win-crt-locale-l1-1-0.dll',
   'BINARY'),
  ('api-ms-win-crt-math-l1-1-0.dll',
   'C:\\Windows\\system32\\api-ms-win-crt-math-l1-1-0.dll',
   'BINARY'),
  ('python38.dll',
   'c:\\users\\acer\\appdata\\local\\programs\\python\\python38\\python38.dll',
   'BINARY'),
  ('api-ms-win-crt-stdio-l1-1-0.dll',
   'C:\\Windows\\system32\\api-ms-win-crt-stdio-l1-1-0.dll',
   'BINARY'),
  ('VCRUNTIME140.dll',
   'c:\\users\\acer\\appdata\\local\\programs\\python\\python38\\VCRUNTIME140.dll',
   'BINARY'),
  ('api-ms-win-crt-heap-l1-1-0.dll',
   'C:\\Windows\\system32\\api-ms-win-crt-heap-l1-1-0.dll',
   'BINARY'),
  ('ucrtbase.dll', 'C:\\Windows\\system32\\ucrtbase.dll', 'BINARY'),
  ('api-ms-win-crt-environment-l1-1-0.dll',
   'C:\\Windows\\system32\\api-ms-win-crt-environment-l1-1-0.dll',
   'BINARY'),
  ('api-ms-win-crt-time-l1-1-0.dll',
   'C:\\Windows\\system32\\api-ms-win-crt-time-l1-1-0.dll',
   'BINARY'),
  ('api-ms-win-crt-process-l1-1-0.dll',
   'C:\\Windows\\system32\\api-ms-win-crt-process-l1-1-0.dll',
   'BINARY'),
  ('api-ms-win-crt-conio-l1-1-0.dll',
   'C:\\Windows\\system32\\api-ms-win-crt-conio-l1-1-0.dll',
   'BINARY'),
  ('api-ms-win-crt-filesystem-l1-1-0.dll',
   'C:\\Windows\\system32\\api-ms-win-crt-filesystem-l1-1-0.dll',
   'BINARY'),
  ('api-ms-win-crt-convert-l1-1-0.dll',
   'C:\\Windows\\system32\\api-ms-win-crt-convert-l1-1-0.dll',
   'BINARY'),
  ('api-ms-win-crt-string-l1-1-0.dll',
   'C:\\Windows\\system32\\api-ms-win-crt-string-l1-1-0.dll',
   'BINARY'),
  ('api-ms-win-core-file-l1-2-0.dll',
   'C:\\Windows\\system32\\api-ms-win-core-file-l1-2-0.dll',
   'BINARY'),
  ('api-ms-win-core-namedpipe-l1-1-0.dll',
   'C:\\Windows\\system32\\api-ms-win-core-namedpipe-l1-1-0.dll',
   'BINARY'),
  ('api-ms-win-core-profile-l1-1-0.dll',
   'C:\\Windows\\system32\\api-ms-win-core-profile-l1-1-0.dll',
   'BINARY'),
  ('api-ms-win-core-synch-l1-2-0.dll',
   'C:\\Windows\\system32\\api-ms-win-core-synch-l1-2-0.dll',
   'BINARY'),
  ('api-ms-win-core-memory-l1-1-0.dll',
   'C:\\Windows\\system32\\api-ms-win-core-memory-l1-1-0.dll',
   'BINARY'),
  ('api-ms-win-core-rtlsupport-l1-1-0.dll',
   'C:\\Windows\\system32\\api-ms-win-core-rtlsupport-l1-1-0.dll',
   'BINARY'),
  ('api-ms-win-core-processenvironment-l1-1-0.dll',
   'C:\\Windows\\system32\\api-ms-win-core-processenvironment-l1-1-0.dll',
   'BINARY'),
  ('api-ms-win-core-errorhandling-l1-1-0.dll',
   'C:\\Windows\\system32\\api-ms-win-core-errorhandling-l1-1-0.dll',
   'BINARY'),
  ('api-ms-win-core-console-l1-1-0.dll',
   'C:\\Windows\\system32\\api-ms-win-core-console-l1-1-0.dll',
   'BINARY'),
  ('api-ms-win-core-handle-l1-1-0.dll',
   'C:\\Windows\\system32\\api-ms-win-core-handle-l1-1-0.dll',
   'BINARY'),
  ('api-ms-win-core-debug-l1-1-0.dll',
   'C:\\Windows\\system32\\api-ms-win-core-debug-l1-1-0.dll',
   'BINARY'),
  ('api-ms-win-core-heap-l1-1-0.dll',
   'C:\\Windows\\system32\\api-ms-win-core-heap-l1-1-0.dll',
   'BINARY'),
  ('api-ms-win-core-util-l1-1-0.dll',
   'C:\\Windows\\system32\\api-ms-win-core-util-l1-1-0.dll',
   'BINARY'),
  ('api-ms-win-core-sysinfo-l1-1-0.dll',
   'C:\\Windows\\system32\\api-ms-win-core-sysinfo-l1-1-0.dll',
   'BINARY'),
  ('api-ms-win-core-string-l1-1-0.dll',
   'C:\\Windows\\system32\\api-ms-win-core-string-l1-1-0.dll',
   'BINARY'),
  ('api-ms-win-core-interlocked-l1-1-0.dll',
   'C:\\Windows\\system32\\api-ms-win-core-interlocked-l1-1-0.dll',
   'BINARY'),
  ('api-ms-win-core-file-l2-1-0.dll',
   'C:\\Windows\\system32\\api-ms-win-core-file-l2-1-0.dll',
   'BINARY'),
  ('api-ms-win-core-timezone-l1-1-0.dll',
   'C:\\Windows\\system32\\api-ms-win-core-timezone-l1-1-0.dll',
   'BINARY'),
  ('api-ms-win-core-localization-l1-2-0.dll',
   'C:\\Windows\\system32\\api-ms-win-core-localization-l1-2-0.dll',
   'BINARY'),
  ('api-ms-win-core-libraryloader-l1-1-0.dll',
   'C:\\Windows\\system32\\api-ms-win-core-libraryloader-l1-1-0.dll',
   'BINARY'),
  ('api-ms-win-core-synch-l1-1-0.dll',
   'C:\\Windows\\system32\\api-ms-win-core-synch-l1-1-0.dll',
   'BINARY'),
  ('api-ms-win-core-datetime-l1-1-0.dll',
   'C:\\Windows\\system32\\api-ms-win-core-datetime-l1-1-0.dll',
   'BINARY'),
  ('api-ms-win-core-file-l1-1-0.dll',
   'C:\\Windows\\system32\\api-ms-win-core-file-l1-1-0.dll',
   'BINARY'),
  ('api-ms-win-core-processthreads-l1-1-0.dll',
   'C:\\Windows\\system32\\api-ms-win-core-processthreads-l1-1-0.dll',
   'BINARY'),
  ('api-ms-win-core-processthreads-l1-1-1.dll',
   'C:\\Windows\\system32\\api-ms-win-core-processthreads-l1-1-1.dll',
   'BINARY'),
  ('_multiprocessing',
   'c:\\users\\acer\\appdata\\local\\programs\\python\\python38\\DLLs\\_multiprocessing.pyd',
   'EXTENSION'),
  ('pyexpat',
   'c:\\users\\acer\\appdata\\local\\programs\\python\\python38\\DLLs\\pyexpat.pyd',
   'EXTENSION'),
  ('_ssl',
   'c:\\users\\acer\\appdata\\local\\programs\\python\\python38\\DLLs\\_ssl.pyd',
   'EXTENSION'),
  ('_hashlib',
   'c:\\users\\acer\\appdata\\local\\programs\\python\\python38\\DLLs\\_hashlib.pyd',
   'EXTENSION'),
  ('unicodedata',
   'c:\\users\\acer\\appdata\\local\\programs\\python\\python38\\DLLs\\unicodedata.pyd',
   'EXTENSION'),
  ('_decimal',
   'c:\\users\\acer\\appdata\\local\\programs\\python\\python38\\DLLs\\_decimal.pyd',
   'EXTENSION'),
  ('_socket',
   'c:\\users\\acer\\appdata\\local\\programs\\python\\python38\\DLLs\\_socket.pyd',
   'EXTENSION'),
  ('select',
   'c:\\users\\acer\\appdata\\local\\programs\\python\\python38\\DLLs\\select.pyd',
   'EXTENSION'),
  ('_lzma',
   'c:\\users\\acer\\appdata\\local\\programs\\python\\python38\\DLLs\\_lzma.pyd',
   'EXTENSION'),
  ('_bz2',
   'c:\\users\\acer\\appdata\\local\\programs\\python\\python38\\DLLs\\_bz2.pyd',
   'EXTENSION'),
  ('_overlapped',
   'c:\\users\\acer\\appdata\\local\\programs\\python\\python38\\DLLs\\_overlapped.pyd',
   'EXTENSION'),
  ('_asyncio',
   'c:\\users\\acer\\appdata\\local\\programs\\python\\python38\\DLLs\\_asyncio.pyd',
   'EXTENSION'),
  ('_queue',
   'c:\\users\\acer\\appdata\\local\\programs\\python\\python38\\DLLs\\_queue.pyd',
   'EXTENSION'),
  ('_ctypes',
   'c:\\users\\acer\\appdata\\local\\programs\\python\\python38\\DLLs\\_ctypes.pyd',
   'EXTENSION'),
  ('win32wnet',
   'c:\\users\\acer\\appdata\\local\\programs\\python\\python38\\lib\\site-packages\\win32\\win32wnet.pyd',
   'EXTENSION'),
  ('api-ms-win-crt-utility-l1-1-0.dll',
   'C:\\Windows\\system32\\api-ms-win-crt-utility-l1-1-0.dll',
   'BINARY'),
  ('libcrypto-1_1.dll',
   'c:\\users\\acer\\appdata\\local\\programs\\python\\python38\\DLLs\\libcrypto-1_1.dll',
   'BINARY'),
  ('libssl-1_1.dll',
   'c:\\users\\acer\\appdata\\local\\programs\\python\\python38\\DLLs\\libssl-1_1.dll',
   'BINARY'),
  ('libffi-7.dll',
   'c:\\users\\acer\\appdata\\local\\programs\\python\\python38\\DLLs\\libffi-7.dll',
   'BINARY'),
  ('pywintypes38.dll',
   'c:\\users\\acer\\appdata\\local\\programs\\python\\python38\\Lib\\site-packages\\pywin32_system32\\pywintypes38.dll',
   'BINARY')],
 [],
 [],
 [('base_library.zip',
   'D:\\python\\fb_mp\\auto-fb-mp-master\\build\\Youtube Video '
   'Scraper\\base_library.zip',
   'DATA'),
  ('selenium\\webdriver\\firefox\\webdriver.xpi',
   'c:\\users\\acer\\appdata\\local\\programs\\python\\python38\\lib\\site-packages\\selenium\\webdriver\\firefox\\webdriver.xpi',
   'DATA'),
  ('selenium\\webdriver\\firefox\\webdriver_prefs.json',
   'c:\\users\\acer\\appdata\\local\\programs\\python\\python38\\lib\\site-packages\\selenium\\webdriver\\firefox\\webdriver_prefs.json',
   'DATA'),
  ('selenium\\webdriver\\firefox\\amd64\\x_ignore_nofocus.so',
   'c:\\users\\acer\\appdata\\local\\programs\\python\\python38\\lib\\site-packages\\selenium\\webdriver\\firefox\\amd64\\x_ignore_nofocus.so',
   'DATA'),
  ('selenium\\webdriver\\firefox\\x86\\x_ignore_nofocus.so',
   'c:\\users\\acer\\appdata\\local\\programs\\python\\python38\\lib\\site-packages\\selenium\\webdriver\\firefox\\x86\\x_ignore_nofocus.so',
   'DATA'),
  ('selenium\\webdriver\\remote\\isDisplayed.js',
   'c:\\users\\acer\\appdata\\local\\programs\\python\\python38\\lib\\site-packages\\selenium\\webdriver\\remote\\isDisplayed.js',
   'DATA'),
  ('selenium\\webdriver\\remote\\getAttribute.js',
   'c:\\users\\acer\\appdata\\local\\programs\\python\\python38\\lib\\site-packages\\selenium\\webdriver\\remote\\getAttribute.js',
   'DATA')],
 [])
